%!PS-Adobe-3.0 EPSF-3.0
%%DocumentNeededResources: font Helvetica
%%+ font Helvetica-Bold
%%+ font Helvetica-Oblique
%%+ font Helvetica-BoldOblique
%%+ font Symbol
%%Title: R Graphics Output
%%Creator: R Software
%%Pages: (atend)
%%BoundingBox: 0 0 432 288
%%EndComments
%%BeginProlog
/bp  { gs sRGB gs } def
% begin .ps.prolog
/gs  { gsave } bind def
/gr  { grestore } bind def
/ep  { showpage gr gr } bind def
/m   { moveto } bind def
/l  { rlineto } bind def
/np  { newpath } bind def
/cp  { closepath } bind def
/f   { fill } bind def
/o   { stroke } bind def
/c   { newpath 0 360 arc } bind def
/r   { 4 2 roll moveto 1 copy 3 -1 roll exch 0 exch rlineto 0 rlineto -1 mul 0 exch rlineto closepath } bind def
/p1  { stroke } bind def
/p2  { gsave bg fill grestore newpath } bind def
/p3  { gsave bg fill grestore stroke } bind def
/p6  { gsave bg eofill grestore newpath } bind def
/p7  { gsave bg eofill grestore stroke } bind def
/t   { 5 -2 roll moveto gsave rotate
       1 index stringwidth pop
       mul neg 0 rmoveto show grestore } bind def
/ta  { 4 -2 roll moveto gsave rotate show } bind def
/tb  { 2 -1 roll 0 rmoveto show } bind def
/cl  { grestore gsave newpath 3 index 3 index moveto 1 index
       4 -1 roll lineto  exch 1 index lineto lineto
       closepath clip newpath } bind def
/rgb { setrgbcolor } bind def
/s   { scalefont setfont } bind def
% end   .ps.prolog
/sRGB { [ /CIEBasedABC
          << /DecodeLMN
               [ { dup 0.03928 le
                        {12.92321 div}
                        {0.055 add 1.055 div 2.4 exp }
                     ifelse
                 } bind dup dup
               ]
             /MatrixLMN [0.412457 0.212673 0.019334
                         0.357576 0.715152 0.119192
                         0.180437 0.072175 0.950301]
             /WhitePoint [0.9505 1.0 1.0890]
           >>
         ] setcolorspace } bind def
/srgb { setcolor } bind def
%%IncludeResource: font Helvetica
/Helvetica findfont
dup length dict begin
  {1 index /FID ne {def} {pop pop} ifelse} forall
  /Encoding ISOLatin1Encoding def
  currentdict
  end
/Font1 exch definefont pop
%%IncludeResource: font Helvetica-Bold
/Helvetica-Bold findfont
dup length dict begin
  {1 index /FID ne {def} {pop pop} ifelse} forall
  /Encoding ISOLatin1Encoding def
  currentdict
  end
/Font2 exch definefont pop
%%IncludeResource: font Helvetica-Oblique
/Helvetica-Oblique findfont
dup length dict begin
  {1 index /FID ne {def} {pop pop} ifelse} forall
  /Encoding ISOLatin1Encoding def
  currentdict
  end
/Font3 exch definefont pop
%%IncludeResource: font Helvetica-BoldOblique
/Helvetica-BoldOblique findfont
dup length dict begin
  {1 index /FID ne {def} {pop pop} ifelse} forall
  /Encoding ISOLatin1Encoding def
  currentdict
  end
/Font4 exch definefont pop
%%IncludeResource: font Symbol
/Symbol findfont
dup length dict begin
  {1 index /FID ne {def} {pop pop} ifelse} forall
  currentdict
  end
/Font5 exch definefont pop
%%EndProlog
%%Page: 1 1
bp
0.00 0.00 432.00 288.00 cl
0.00 0.00 432.00 288.00 cl
0.00 0.00 432.00 288.00 cl
/bg { 1 1 1 srgb } def
1 1 1 srgb
1.06 setlinewidth
[] 0 setdash
1 setlinecap
1 setlinejoin
10.00 setmiterlimit
0.00 0.00 432.00 288.00 r p3
0.00 0.00 432.00 288.00 cl
0.00 0.00 432.00 288.00 cl
0.00 0.00 432.00 288.00 cl
55.31 43.03 417.60 256.35 cl
/bg { 0.8980 0.8980 0.8980 srgb } def
55.31 43.03 362.29 213.32 r p2
0.9490 0.9490 0.9490 srgb
0.53 setlinewidth
[] 0 setdash
0 setlinecap
1 setlinejoin
10.00 setmiterlimit
np
55.31 79.80 m
362.29 0 l
o
np
55.31 135.41 m
362.29 0 l
o
np
55.31 191.03 m
362.29 0 l
o
np
55.31 246.64 m
362.29 0 l
o
1 1 1 srgb
1.06 setlinewidth
[] 0 setdash
np
55.31 52.00 m
362.29 0 l
o
np
55.31 107.61 m
362.29 0 l
o
np
55.31 163.22 m
362.29 0 l
o
np
55.31 218.83 m
362.29 0 l
o
np
56.73 43.03 m
0 213.32 l
o
np
261.45 43.03 m
0 213.32 l
o
np
106.72 43.03 m
0 213.32 l
o
np
313.82 43.03 m
0 213.32 l
o
np
156.71 43.03 m
0 213.32 l
o
np
363.80 43.03 m
0 213.32 l
o
np
209.08 43.03 m
0 213.32 l
o
np
416.17 43.03 m
0 213.32 l
o
0.9725 0.4627 0.4275 srgb
1.00 setmiterlimit
np
56.73 224.04 m
2.39 -7.08 l
2.38 3.85 l
2.38 -13.53 l
2.38 0.83 l
2.38 12.29 l
2.38 0.64 l
2.38 1.05 l
2.38 2.71 l
2.38 -4.63 l
2.38 1.25 l
2.38 -1.17 l
2.38 3.13 l
2.38 -2.91 l
2.38 4.60 l
2.38 -7.59 l
2.38 -1.84 l
2.38 -3.59 l
2.38 4.45 l
2.38 1.67 l
2.38 5.61 l
2.38 2.80 l
2.38 -8.93 l
2.38 -2.06 l
2.38 7.00 l
2.38 5.44 l
2.38 -5.17 l
2.39 -2.28 l
2.38 -4.97 l
2.38 10.65 l
2.38 -1.92 l
2.38 -1.54 l
2.38 -0.57 l
2.38 2.25 l
2.38 3.31 l
2.38 -0.67 l
2.38 -3.93 l
2.38 0.47 l
2.38 1.30 l
2.38 10.23 l
2.38 -9.81 l
2.38 0.55 l
2.38 -2.47 l
2.38 -0.89 l
2.38 2.62 l
2.38 6.07 l
2.38 -0.91 l
2.38 -3.89 l
2.38 10.06 l
2.38 -9.44 l
2.38 -5.37 l
2.38 0.35 l
2.38 -1.82 l
2.38 4.72 l
2.39 8.79 l
2.38 -9.19 l
2.38 -1.07 l
2.38 7.25 l
2.38 3.75 l
2.38 -9.91 l
2.38 1.56 l
2.38 3.36 l
2.38 -12.74 l
2.38 4.62 l
2.38 -2.74 l
2.38 3.99 l
2.38 -2.01 l
2.38 12.63 l
2.38 -5.40 l
2.38 -2.87 l
2.38 4.01 l
2.38 -20.50 l
2.38 8.90 l
2.38 4.67 l
2.38 -1.80 l
2.38 2.16 l
2.38 -6.81 l
2.38 7.16 l
2.38 3.65 l
2.38 -0.25 l
2.39 -0.91 l
2.38 -1.54 l
2.38 5.02 l
2.38 3.01 l
2.38 -11.75 l
2.38 18.73 l
2.38 -5.28 l
2.38 -2.17 l
2.38 -4.10 l
2.38 3.08 l
2.38 5.75 l
2.38 -15.31 l
2.38 15.59 l
2.38 -11.35 l
2.38 7.93 l
2.38 -0.72 l
2.38 -10.60 l
2.38 -1.18 l
2.38 0.62 l
2.38 4.58 l
294.77 222.89 lineto
2.38 8.10 l
2.38 -6.40 l
2.38 14.19 l
2.38 -6.55 l
2.38 0.55 l
2.38 -3.85 l
2.39 -5.35 l
2.38 3.01 l
2.38 8.66 l
2.38 7.46 l
2.38 -12.82 l
2.38 0.23 l
2.38 1.52 l
2.38 6.52 l
2.38 -2.74 l
2.38 5.09 l
2.38 6.14 l
2.38 -5.37 l
2.38 -3.40 l
2.38 -3.77 l
2.38 0.26 l
2.38 5.38 l
2.38 -5.84 l
2.38 -0.91 l
2.38 -2.17 l
2.38 10.85 l
2.38 -6.35 l
2.38 0.75 l
2.38 1.15 l
2.38 -2.29 l
2.38 -0.23 l
2.38 -5.09 l
2.38 2.64 l
2.39 -10.05 l
2.38 13.56 l
2.38 0.54 l
2.38 -6.39 l
2.38 11.54 l
2.38 -3.85 l
2.38 -5.75 l
2.38 7.13 l
2.38 -11.26 l
2.38 -7.84 l
2.38 8.17 l
2.38 1.60 l
2.38 7.75 l
2.38 -7.45 l
2.38 -6.86 l
2.38 3.37 l
2.38 7.06 l
2.38 0.57 l
o
0.4863 0.6824 0 srgb
np
56.73 79.97 m
2.39 0.82 l
2.38 -2.57 l
2.38 12.85 l
2.38 0.43 l
2.38 -6.42 l
2.38 -10.67 l
2.38 -0.17 l
2.38 -5.76 l
2.38 12.94 l
2.38 -0.75 l
2.38 -8.57 l
2.38 2.45 l
2.38 5.06 l
2.38 -2.43 l
2.38 7.38 l
2.38 -3.53 l
2.38 9.06 l
2.38 -17.27 l
2.38 -3.61 l
2.38 9.81 l
2.38 -2.95 l
2.38 4.26 l
2.38 8.05 l
2.38 -10.18 l
2.38 -9.38 l
2.38 -0.15 l
2.39 11.28 l
2.38 1.95 l
2.38 -7.53 l
2.38 5.70 l
2.38 -2.42 l
2.38 -10.33 l
2.38 -3.02 l
2.38 6.56 l
2.38 2.56 l
2.38 5.08 l
2.38 1.59 l
2.38 -5.63 l
2.38 -3.11 l
2.38 -1.67 l
2.38 6.93 l
2.38 4.50 l
2.38 -0.65 l
2.38 -1.27 l
2.38 -3.17 l
2.38 -0.15 l
2.38 -0.10 l
2.38 -9.16 l
2.38 6.30 l
2.38 1.73 l
2.38 5.23 l
2.38 0.59 l
2.38 -8.37 l
2.39 -5.17 l
2.38 0.72 l
2.38 3.29 l
2.38 -3.75 l
2.38 -2.09 l
2.38 6.05 l
2.38 0.70 l
2.38 2.07 l
2.38 -1.58 l
2.38 1.95 l
2.38 -3.47 l
2.38 2.89 l
2.38 6.48 l
2.38 -4.37 l
2.38 1.33 l
2.38 2.09 l
2.38 -8.46 l
2.38 1.00 l
2.38 1.16 l
2.38 6.61 l
2.38 3.29 l
2.38 -3.97 l
2.38 1.91 l
2.38 -5.37 l
2.38 -2.10 l
2.38 -2.61 l
2.39 2.21 l
2.38 4.40 l
2.38 -5.37 l
2.38 -0.98 l
2.38 1.75 l
2.38 -7.84 l
2.38 -1.77 l
2.38 7.37 l
2.38 -2.78 l
2.38 4.79 l
2.38 -6.74 l
2.38 -2.57 l
2.38 -1.56 l
2.38 5.96 l
2.38 -1.92 l
2.38 -2.10 l
2.38 13.61 l
2.38 -10.52 l
2.38 1.93 l
2.38 2.13 l
294.77 68.59 lineto
2.38 -4.09 l
2.38 1.01 l
2.38 -4.48 l
2.38 1.49 l
2.38 6.00 l
2.38 2.16 l
2.39 -1.76 l
2.38 -1.06 l
2.38 -0.23 l
2.38 -8.02 l
2.38 4.83 l
2.38 3.80 l
2.38 4.61 l
2.38 -4.60 l
2.38 -3.38 l
2.38 2.79 l
2.38 -1.66 l
2.38 -3.99 l
2.38 2.21 l
2.38 7.28 l
2.38 -4.12 l
2.38 -2.96 l
2.38 -0.61 l
2.38 -0.74 l
2.38 -0.16 l
2.38 0.51 l
2.38 -2.65 l
2.38 3.10 l
2.38 -1.41 l
2.38 1.12 l
2.38 2.10 l
2.38 8.66 l
2.38 -1.98 l
2.39 7.85 l
2.38 -11.09 l
2.38 0.84 l
2.38 0.50 l
2.38 -4.15 l
2.38 6.54 l
2.38 3.21 l
2.38 -7.99 l
2.38 4.66 l
2.38 6.68 l
2.38 -7.92 l
2.38 6.30 l
2.38 -3.22 l
2.38 6.24 l
2.38 4.93 l
2.38 -2.76 l
2.38 -4.68 l
2.38 -5.78 l
o
0 0.7490 0.7686 srgb
np
56.73 63.72 m
2.39 1.67 l
2.38 -0.47 l
2.38 2.11 l
2.38 -2.64 l
2.38 -1.95 l
2.38 0.71 l
2.38 1.27 l
2.38 0.98 l
2.38 0.66 l
2.38 -1.46 l
2.38 -0.05 l
2.38 -2.72 l
2.38 1.94 l
2.38 -0.93 l
2.38 -0.12 l
2.38 1.37 l
2.38 -2.18 l
2.38 -0.68 l
2.38 0.03 l
2.38 2.33 l
2.38 -1.29 l
2.38 0.09 l
2.38 -0.59 l
2.38 -0.46 l
2.38 -2.28 l
2.38 1.77 l
2.39 3.52 l
2.38 -1.07 l
2.38 -0.45 l
2.38 -0.45 l
2.38 0.23 l
2.38 -0.39 l
2.38 -2.22 l
2.38 3.85 l
2.38 -4.88 l
2.38 0.28 l
2.38 -0.42 l
2.38 -0.25 l
2.38 -1.37 l
2.38 2.06 l
2.38 1.20 l
2.38 -0.80 l
2.38 -0.04 l
2.38 -0.42 l
2.38 -0.92 l
2.38 0.68 l
2.38 0.59 l
2.38 -2.75 l
2.38 0.39 l
2.38 2.18 l
2.38 0.94 l
2.38 -0.52 l
2.38 -0.01 l
2.39 -0.63 l
2.38 6.32 l
2.38 -8.94 l
2.38 -0.21 l
2.38 -0.73 l
2.38 2.48 l
2.38 -0.65 l
2.38 0.08 l
2.38 3.00 l
2.38 -1.84 l
2.38 3.62 l
2.38 -0.08 l
2.38 -3.35 l
2.38 -0.41 l
2.38 -0.78 l
2.38 0.39 l
2.38 -0.04 l
2.38 0.95 l
2.38 2.55 l
2.38 -1.57 l
2.38 -1.50 l
2.38 -0.89 l
2.38 1.85 l
2.38 1.25 l
2.38 -0.28 l
2.38 -0.98 l
2.39 3.91 l
2.38 -2.36 l
2.38 -2.45 l
2.38 1.23 l
2.38 -1.00 l
2.38 -1.14 l
2.38 -1.14 l
2.38 1.92 l
2.38 -0.88 l
2.38 -0.53 l
2.38 1.11 l
2.38 -0.77 l
2.38 -0.81 l
2.38 4.36 l
2.38 -3.32 l
2.38 0.58 l
2.38 -1.36 l
2.38 2.67 l
2.38 -2.84 l
2.38 0.69 l
294.77 56.55 lineto
2.38 -0.19 l
2.38 -0.46 l
2.38 0.86 l
2.38 -1.33 l
2.38 0.17 l
2.38 1.76 l
2.39 0.34 l
2.38 -0.18 l
2.38 0.18 l
2.38 -0.30 l
2.38 -0.56 l
2.38 0.92 l
2.38 -0.34 l
2.38 -0.41 l
2.38 -0.03 l
2.38 0.60 l
2.38 -1.20 l
2.38 -0.50 l
2.38 0.90 l
2.38 1.63 l
2.38 1.40 l
2.38 -1.60 l
2.38 -1.23 l
2.38 2.46 l
2.38 1.58 l
2.38 -2.14 l
2.38 1.90 l
2.38 -3.87 l
2.38 1.25 l
2.38 0.43 l
2.38 2.23 l
2.38 -0.22 l
2.38 -1.32 l
2.39 -1.74 l
2.38 0.90 l
2.38 -0.90 l
2.38 -1.37 l
2.38 -0.05 l
2.38 1.85 l
2.38 -0.37 l
2.38 -1.15 l
2.38 1.78 l
2.38 -0.97 l
2.38 2.40 l
2.38 -2.07 l
2.38 -1.47 l
2.38 0.09 l
2.38 0.15 l
2.38 -0.98 l
2.38 1.33 l
2.38 -1.29 l
o
0.7804 0.4863 1 srgb
np
56.73 53.89 m
2.39 -0.19 l
2.38 -0.46 l
2.38 0.66 l
2.38 -0.64 l
2.38 -0.14 l
2.38 -0.12 l
2.38 0.92 l
2.38 -0.82 l
2.38 0.30 l
2.38 -0.18 l
2.38 0.04 l
2.38 -0.34 l
2.38 1.27 l
2.38 -0.95 l
2.38 0.19 l
2.38 -0.15 l
2.38 -0.51 l
2.38 -0.05 l
2.38 1.31 l
2.38 0.70 l
2.38 -1.62 l
2.38 0.65 l
2.38 -0.55 l
2.38 0.29 l
2.38 -0.39 l
2.38 0.70 l
2.39 -0.63 l
2.38 -0.13 l
2.38 0.42 l
2.38 0.05 l
2.38 -0.28 l
2.38 0.85 l
2.38 0.08 l
2.38 -0.90 l
2.38 1.46 l
2.38 -0.37 l
2.38 -0.02 l
2.38 1.79 l
2.38 -1.69 l
2.38 0.25 l
2.38 0.44 l
2.38 0.22 l
2.38 0.32 l
2.38 -0.41 l
2.38 -0.05 l
2.38 -0.38 l
2.38 0.16 l
2.38 -1.31 l
2.38 0.92 l
2.38 -0.05 l
2.38 1.01 l
2.38 0.03 l
2.38 -0.39 l
2.39 -0.88 l
2.38 0.84 l
2.38 -1.15 l
2.38 1.81 l
2.38 -1.58 l
2.38 1.40 l
2.38 0.26 l
2.38 -0.85 l
2.38 0.36 l
2.38 -0.41 l
2.38 1.68 l
2.38 -1.86 l
2.38 0.46 l
2.38 -0.87 l
2.38 0.40 l
2.38 -0.83 l
2.38 1.20 l
2.38 -1.43 l
2.38 0.24 l
2.38 1.98 l
2.38 -1.37 l
2.38 1.61 l
2.38 -1.21 l
2.38 -0.06 l
2.38 0.50 l
2.38 -0.84 l
2.39 2.93 l
2.38 -2.21 l
2.38 1.84 l
2.38 -2.75 l
2.38 0.30 l
2.38 -0.85 l
2.38 2.46 l
2.38 -1.40 l
2.38 2.18 l
2.38 -1.44 l
2.38 -0.08 l
2.38 -1.34 l
2.38 -0.42 l
2.38 1.01 l
2.38 -0.78 l
2.38 0.88 l
2.38 0.55 l
2.38 1.32 l
2.38 -0.93 l
2.38 -0.54 l
294.77 57.60 lineto
2.38 -0.90 l
2.38 0.74 l
2.38 -1.33 l
2.38 -0.93 l
2.38 -0.73 l
2.38 -0.39 l
2.39 1.81 l
2.38 -0.92 l
2.38 -0.09 l
2.38 -0.60 l
2.38 0.54 l
2.38 0.19 l
2.38 0.23 l
2.38 0.49 l
2.38 0.09 l
2.38 -1.14 l
2.38 0.28 l
2.38 1.40 l
2.38 -1.31 l
2.38 0.30 l
2.38 0.17 l
2.38 -0.12 l
2.38 -0.86 l
2.38 1.39 l
2.38 -1.31 l
2.38 1.64 l
2.38 -1.82 l
2.38 0.03 l
2.38 0.12 l
2.38 1.36 l
2.38 -0.98 l
2.38 1.55 l
2.38 -0.02 l
2.39 -0.86 l
2.38 -0.73 l
2.38 0.08 l
2.38 0.73 l
2.38 -0.53 l
2.38 0.06 l
2.38 1.54 l
2.38 -1.37 l
2.38 -1.07 l
2.38 0.71 l
2.38 0.77 l
2.38 -1.28 l
2.38 -0.19 l
2.38 0.29 l
2.38 -0.23 l
2.38 -0.09 l
2.38 0.25 l
2.38 0.65 l
o
0.00 0.00 432.00 288.00 cl
0.00 0.00 432.00 288.00 cl
0.00 0.00 432.00 288.00 cl
/Font1 findfont 10 s
0.4980 0.4980 0.4980 srgb
48.22 48.41 (0.00) 1 0 t
48.22 104.02 (0.25) 1 0 t
48.22 159.63 (0.50) 1 0 t
48.22 215.24 (0.75) 1 0 t
0.00 0.00 432.00 288.00 cl
0.00 0.00 432.00 288.00 cl
0.4980 0.4980 0.4980 srgb
1.06 setlinewidth
[] 0 setdash
0 setlinecap
1 setlinejoin
10.00 setmiterlimit
np
51.05 52.00 m
4.26 0 l
o
np
51.05 107.61 m
4.26 0 l
o
np
51.05 163.22 m
4.26 0 l
o
np
51.05 218.83 m
4.26 0 l
o
0.00 0.00 432.00 288.00 cl
0.00 0.00 432.00 288.00 cl
0.00 0.00 432.00 288.00 cl
0.00 0.00 432.00 288.00 cl
0.00 0.00 432.00 288.00 cl
0.00 0.00 432.00 288.00 cl
0.4980 0.4980 0.4980 srgb
1.06 setlinewidth
[] 0 setdash
0 setlinecap
1 setlinejoin
10.00 setmiterlimit
np
56.73 38.77 m
0 4.26 l
o
np
261.45 38.77 m
0 4.26 l
o
np
106.72 38.77 m
0 4.26 l
o
np
313.82 38.77 m
0 4.26 l
o
np
156.71 38.77 m
0 4.26 l
o
np
363.80 38.77 m
0 4.26 l
o
np
209.08 38.77 m
0 4.26 l
o
np
416.17 38.77 m
0 4.26 l
o
0.00 0.00 432.00 288.00 cl
0.00 0.00 432.00 288.00 cl
/Font1 findfont 10 s
0.4980 0.4980 0.4980 srgb
56.73 28.76 (13/04/23) .5 0 t
261.45 28.76 (13/07/22) .5 0 t
106.72 28.76 (13/05/14) .5 0 t
313.82 28.76 (13/08/16) .5 0 t
156.71 28.76 (13/06/04) .5 0 t
363.80 28.76 (13/09/06) .5 0 t
209.08 28.76 (13/06/29) .5 0 t
416.17 28.76 (13/09/28) .5 0 t
0.00 0.00 432.00 288.00 cl
0.00 0.00 432.00 288.00 cl
0.00 0.00 432.00 288.00 cl
0.00 0.00 432.00 288.00 cl
0.00 0.00 432.00 288.00 cl
/Font2 findfont 20 s
0.6000 0 0 srgb
236.45 10.80 (Time) .5 0 t
0.00 0.00 432.00 288.00 cl
0.00 0.00 432.00 288.00 cl
/Font2 findfont 20 s
0.6000 0 0 srgb
25.16 88.57 (V) 90 ta
-1.800 (olumn ratio) tb gr
0.00 0.00 432.00 288.00 cl
0.00 0.00 432.00 288.00 cl
0.00 0.00 432.00 288.00 cl
0.00 0.00 432.00 288.00 cl
0.00 0.00 432.00 288.00 cl
0.00 0.00 432.00 288.00 cl
/bg { 1 1 1 srgb } def
291.98 103.33 106.31 92.71 r p2
0.00 0.00 432.00 288.00 cl
0.00 0.00 432.00 288.00 cl
/Font2 findfont 15 s
0 0 0 srgb
296.24 181.02 (Categor) 0 ta
0.150 (y) tb gr
0.00 0.00 432.00 288.00 cl
0.00 0.00 432.00 288.00 cl
/bg { 0.9490 0.9490 0.9490 srgb } def
1 1 1 srgb
1.06 setlinewidth
[] 0 setdash
1 setlinecap
1 setlinejoin
10.00 setmiterlimit
296.24 159.42 17.28 17.28 r p3
0.00 0.00 432.00 288.00 cl
0.00 0.00 432.00 288.00 cl
0.9725 0.4627 0.4275 srgb
1.06 setlinewidth
[] 0 setdash
0 setlinecap
1 setlinejoin
10.00 setmiterlimit
np
297.96 168.06 m
13.83 0 l
o
0.00 0.00 432.00 288.00 cl
0.00 0.00 432.00 288.00 cl
/bg { 0.9490 0.9490 0.9490 srgb } def
1 1 1 srgb
1.06 setlinewidth
[] 0 setdash
1 setlinecap
1 setlinejoin
10.00 setmiterlimit
296.24 142.14 17.28 17.28 r p3
0.00 0.00 432.00 288.00 cl
0.00 0.00 432.00 288.00 cl
0.4863 0.6824 0 srgb
1.06 setlinewidth
[] 0 setdash
0 setlinecap
1 setlinejoin
10.00 setmiterlimit
np
297.96 150.78 m
13.83 0 l
o
0.00 0.00 432.00 288.00 cl
0.00 0.00 432.00 288.00 cl
/bg { 0.9490 0.9490 0.9490 srgb } def
1 1 1 srgb
1.06 setlinewidth
[] 0 setdash
1 setlinecap
1 setlinejoin
10.00 setmiterlimit
296.24 124.86 17.28 17.28 r p3
0.00 0.00 432.00 288.00 cl
0.00 0.00 432.00 288.00 cl
0 0.7490 0.7686 srgb
1.06 setlinewidth
[] 0 setdash
0 setlinecap
1 setlinejoin
10.00 setmiterlimit
np
297.96 133.50 m
13.83 0 l
o
0.00 0.00 432.00 288.00 cl
0.00 0.00 432.00 288.00 cl
/bg { 0.9490 0.9490 0.9490 srgb } def
1 1 1 srgb
1.06 setlinewidth
[] 0 setdash
1 setlinecap
1 setlinejoin
10.00 setmiterlimit
296.24 107.58 17.28 17.28 r p3
0.00 0.00 432.00 288.00 cl
0.00 0.00 432.00 288.00 cl
0.7804 0.4863 1 srgb
1.06 setlinewidth
[] 0 setdash
0 setlinecap
1 setlinejoin
10.00 setmiterlimit
np
297.96 116.22 m
13.83 0 l
o
0.00 0.00 432.00 288.00 cl
0.00 0.00 432.00 288.00 cl
/Font1 findfont 10 s
0 0 0 srgb
315.68 164.47 (HTTP) 0 0 t
0.00 0.00 432.00 288.00 cl
0.00 0.00 432.00 288.00 cl
/Font1 findfont 10 s
0 0 0 srgb
315.68 147.19 (InstantMessaging) 0 0 t
0.00 0.00 432.00 288.00 cl
0.00 0.00 432.00 288.00 cl
/Font1 findfont 10 s
0 0 0 srgb
315.68 129.91 (NetMan) 0 0 t
0.00 0.00 432.00 288.00 cl
0.00 0.00 432.00 288.00 cl
/Font1 findfont 10 s
0 0 0 srgb
315.68 112.63 (Streaming) 0 0 t
0.00 0.00 432.00 288.00 cl
0.00 0.00 432.00 288.00 cl
0.00 0.00 432.00 288.00 cl
0.00 0.00 432.00 288.00 cl
0.00 0.00 432.00 288.00 cl
0.00 0.00 432.00 288.00 cl
0.00 0.00 432.00 288.00 cl
0.00 0.00 432.00 288.00 cl
0.00 0.00 432.00 288.00 cl
0.00 0.00 432.00 288.00 cl
0.00 0.00 432.00 288.00 cl
0.00 0.00 432.00 288.00 cl
ep
%%Trailer
%%Pages: 1
%%EOF
