%!PS-Adobe-3.0 EPSF-3.0
%%DocumentNeededResources: font Helvetica
%%+ font Helvetica-Bold
%%+ font Helvetica-Oblique
%%+ font Helvetica-BoldOblique
%%+ font Symbol
%%Title: R Graphics Output
%%Creator: R Software
%%Pages: (atend)
%%BoundingBox: 0 0 288 252
%%EndComments
%%BeginProlog
/bp  { gs sRGB gs } def
% begin .ps.prolog
/gs  { gsave } bind def
/gr  { grestore } bind def
/ep  { showpage gr gr } bind def
/m   { moveto } bind def
/l  { rlineto } bind def
/np  { newpath } bind def
/cp  { closepath } bind def
/f   { fill } bind def
/o   { stroke } bind def
/c   { newpath 0 360 arc } bind def
/r   { 4 2 roll moveto 1 copy 3 -1 roll exch 0 exch rlineto 0 rlineto -1 mul 0 exch rlineto closepath } bind def
/p1  { stroke } bind def
/p2  { gsave bg fill grestore newpath } bind def
/p3  { gsave bg fill grestore stroke } bind def
/p6  { gsave bg eofill grestore newpath } bind def
/p7  { gsave bg eofill grestore stroke } bind def
/t   { 5 -2 roll moveto gsave rotate
       1 index stringwidth pop
       mul neg 0 rmoveto show grestore } bind def
/ta  { 4 -2 roll moveto gsave rotate show } bind def
/tb  { 2 -1 roll 0 rmoveto show } bind def
/cl  { grestore gsave newpath 3 index 3 index moveto 1 index
       4 -1 roll lineto  exch 1 index lineto lineto
       closepath clip newpath } bind def
/rgb { setrgbcolor } bind def
/s   { scalefont setfont } bind def
% end   .ps.prolog
/sRGB { [ /CIEBasedABC
          << /DecodeLMN
               [ { dup 0.03928 le
                        {12.92321 div}
                        {0.055 add 1.055 div 2.4 exp }
                     ifelse
                 } bind dup dup
               ]
             /MatrixLMN [0.412457 0.212673 0.019334
                         0.357576 0.715152 0.119192
                         0.180437 0.072175 0.950301]
             /WhitePoint [0.9505 1.0 1.0890]
           >>
         ] setcolorspace } bind def
/srgb { setcolor } bind def
%%IncludeResource: font Helvetica
/Helvetica findfont
dup length dict begin
  {1 index /FID ne {def} {pop pop} ifelse} forall
  /Encoding ISOLatin1Encoding def
  currentdict
  end
/Font1 exch definefont pop
%%IncludeResource: font Helvetica-Bold
/Helvetica-Bold findfont
dup length dict begin
  {1 index /FID ne {def} {pop pop} ifelse} forall
  /Encoding ISOLatin1Encoding def
  currentdict
  end
/Font2 exch definefont pop
%%IncludeResource: font Helvetica-Oblique
/Helvetica-Oblique findfont
dup length dict begin
  {1 index /FID ne {def} {pop pop} ifelse} forall
  /Encoding ISOLatin1Encoding def
  currentdict
  end
/Font3 exch definefont pop
%%IncludeResource: font Helvetica-BoldOblique
/Helvetica-BoldOblique findfont
dup length dict begin
  {1 index /FID ne {def} {pop pop} ifelse} forall
  /Encoding ISOLatin1Encoding def
  currentdict
  end
/Font4 exch definefont pop
%%IncludeResource: font Symbol
/Symbol findfont
dup length dict begin
  {1 index /FID ne {def} {pop pop} ifelse} forall
  currentdict
  end
/Font5 exch definefont pop
%%EndProlog
%%Page: 1 1
bp
0.00 0.00 288.00 252.00 cl
0.00 0.00 288.00 252.00 cl
0.00 0.00 288.00 252.00 cl
/bg { 1 1 1 srgb } def
1 1 1 srgb
1.06 setlinewidth
[] 0 setdash
1 setlinecap
1 setlinejoin
10.00 setmiterlimit
0.00 -0.00 288.00 252.00 r p3
0.00 0.00 288.00 252.00 cl
0.00 0.00 288.00 252.00 cl
0.00 0.00 288.00 252.00 cl
37.82 39.44 273.60 237.60 cl
/bg { 1 1 1 srgb } def
37.82 39.44 235.78 198.16 r p2
0.9804 0.9804 0.9804 srgb
1.06 setlinewidth
[] 0 setdash
0 setlinecap
1 setlinejoin
10.00 setmiterlimit
np
37.82 70.96 m
235.78 0 l
o
np
37.82 116.00 m
235.78 0 l
o
np
37.82 161.04 m
235.78 0 l
o
np
37.82 206.07 m
235.78 0 l
o
np
69.97 39.44 m
0 198.16 l
o
np
112.84 39.44 m
0 198.16 l
o
np
155.71 39.44 m
0 198.16 l
o
np
198.58 39.44 m
0 198.16 l
o
np
241.45 39.44 m
0 198.16 l
o
0.8980 0.8980 0.8980 srgb
0.43 setlinewidth
[] 0 setdash
np
37.82 48.44 m
235.78 0 l
o
np
37.82 93.48 m
235.78 0 l
o
np
37.82 138.52 m
235.78 0 l
o
np
37.82 183.56 m
235.78 0 l
o
np
37.82 228.59 m
235.78 0 l
o
np
48.53 39.44 m
0 198.16 l
o
np
91.40 39.44 m
0 198.16 l
o
np
134.27 39.44 m
0 198.16 l
o
np
177.14 39.44 m
0 198.16 l
o
np
220.01 39.44 m
0 198.16 l
o
np
262.88 39.44 m
0 198.16 l
o
/bg { 0 0 0 srgb } def
52.82 52.31 2.13 c p2
91.40 118.12 2.13 c p2
95.69 120.30 2.13 c p2
99.98 122.27 2.13 c p2
104.26 125.40 2.13 c p2
108.55 126.55 2.13 c p2
112.84 123.90 2.13 c p2
117.13 129.85 2.13 c p2
121.41 132.42 2.13 c p2
125.70 131.00 2.13 c p2
129.99 130.49 2.13 c p2
57.11 67.16 2.13 c p2
134.27 131.37 2.13 c p2
138.56 123.73 2.13 c p2
142.85 135.38 2.13 c p2
147.13 134.95 2.13 c p2
151.42 134.31 2.13 c p2
155.71 136.50 2.13 c p2
160.00 140.01 2.13 c p2
164.28 141.17 2.13 c p2
168.57 141.44 2.13 c p2
172.86 140.92 2.13 c p2
61.39 78.21 2.13 c p2
177.14 141.85 2.13 c p2
181.43 144.33 2.13 c p2
185.72 144.73 2.13 c p2
190.00 146.71 2.13 c p2
194.29 145.84 2.13 c p2
198.58 149.89 2.13 c p2
202.86 150.04 2.13 c p2
207.15 145.28 2.13 c p2
211.44 147.99 2.13 c p2
215.73 149.48 2.13 c p2
65.68 86.83 2.13 c p2
220.01 149.58 2.13 c p2
224.30 154.19 2.13 c p2
228.59 150.63 2.13 c p2
232.87 151.58 2.13 c p2
237.16 157.18 2.13 c p2
241.45 155.90 2.13 c p2
245.73 152.96 2.13 c p2
250.02 153.31 2.13 c p2
254.31 154.02 2.13 c p2
258.60 154.26 2.13 c p2
69.97 93.67 2.13 c p2
262.88 157.43 2.13 c p2
74.26 102.23 2.13 c p2
78.54 106.96 2.13 c p2
82.83 109.38 2.13 c p2
87.12 114.98 2.13 c p2
0.2000 0.4000 1 srgb
2.13 setlinewidth
[] 0 setdash
1.00 setmiterlimit
np
52.82 51.67 m
2.66 12.72 l
2.66 8.54 l
2.66 6.44 l
2.66 5.18 l
2.66 4.32 l
2.66 3.71 l
2.65 3.26 l
2.66 2.89 l
2.66 2.61 l
2.66 2.37 l
2.66 2.18 l
2.66 2.01 l
2.66 1.87 l
2.66 1.75 l
2.66 1.63 l
2.66 1.54 l
2.65 1.46 l
2.66 1.38 l
2.66 1.31 l
2.66 1.25 l
2.66 1.19 l
2.66 1.14 l
2.66 1.09 l
2.66 1.05 l
2.66 1.01 l
2.66 0.98 l
2.65 0.93 l
2.66 0.91 l
2.66 0.87 l
2.66 0.85 l
2.66 0.82 l
2.66 0.80 l
2.66 0.77 l
2.66 0.75 l
2.66 0.73 l
2.66 0.71 l
2.65 0.69 l
2.66 0.68 l
2.66 0.66 l
2.66 0.64 l
2.66 0.62 l
2.66 0.61 l
2.66 0.60 l
2.66 0.59 l
2.66 0.57 l
2.66 0.56 l
2.65 0.54 l
2.66 0.54 l
2.66 0.53 l
2.66 0.51 l
2.66 0.51 l
2.66 0.50 l
2.66 0.48 l
2.66 0.48 l
2.66 0.47 l
2.66 0.46 l
2.65 0.46 l
2.66 0.44 l
2.66 0.44 l
2.66 0.43 l
2.66 0.43 l
2.66 0.41 l
2.66 0.41 l
2.66 0.41 l
2.66 0.40 l
2.66 0.39 l
2.65 0.39 l
2.66 0.38 l
2.66 0.38 l
2.66 0.37 l
2.66 0.36 l
2.66 0.36 l
2.66 0.36 l
2.66 0.35 l
2.66 0.35 l
2.66 0.34 l
2.65 0.33 l
2.66 0.34 l
2.66 0.33 l
o
/Font1 findfont 14 s
0 0 0 srgb
147.13 178.53 (y=1.37lnx-0.53, p<0.001) .5 0 t
0.4980 0.4980 0.4980 srgb
1.06 setlinewidth
[] 0 setdash
1 setlinecap
10.00 setmiterlimit
37.82 39.44 235.78 198.16 r p1
0.00 0.00 288.00 252.00 cl
0.00 0.00 288.00 252.00 cl
0.00 0.00 288.00 252.00 cl
/Font1 findfont 10 s
0 0 0 srgb
30.73 44.85 (0) 1 0 t
30.73 89.89 (2) 1 0 t
30.73 134.93 (4) 1 0 t
30.73 179.97 (6) 1 0 t
30.73 225.00 (8) 1 0 t
0.00 0.00 288.00 252.00 cl
0.00 0.00 288.00 252.00 cl
0 0 0 srgb
1.06 setlinewidth
[] 0 setdash
0 setlinecap
1 setlinejoin
10.00 setmiterlimit
np
33.56 48.44 m
4.26 0 l
o
np
33.56 93.48 m
4.26 0 l
o
np
33.56 138.52 m
4.26 0 l
o
np
33.56 183.56 m
4.26 0 l
o
np
33.56 228.59 m
4.26 0 l
o
0.00 0.00 288.00 252.00 cl
0.00 0.00 288.00 252.00 cl
0.00 0.00 288.00 252.00 cl
0.00 0.00 288.00 252.00 cl
0.00 0.00 288.00 252.00 cl
0.00 0.00 288.00 252.00 cl
0 0 0 srgb
1.06 setlinewidth
[] 0 setdash
0 setlinecap
1 setlinejoin
10.00 setmiterlimit
np
48.53 35.18 m
0 4.26 l
o
np
91.40 35.18 m
0 4.26 l
o
np
134.27 35.18 m
0 4.26 l
o
np
177.14 35.18 m
0 4.26 l
o
np
220.01 35.18 m
0 4.26 l
o
np
262.88 35.18 m
0 4.26 l
o
0.00 0.00 288.00 252.00 cl
0.00 0.00 288.00 252.00 cl
/Font1 findfont 10 s
0 0 0 srgb
48.53 25.17 (0) .5 0 t
91.40 25.17 (10) .5 0 t
134.27 25.17 (20) .5 0 t
177.14 25.17 (30) .5 0 t
220.01 25.17 (40) .5 0 t
262.88 25.17 (50) .5 0 t
0.00 0.00 288.00 252.00 cl
0.00 0.00 288.00 252.00 cl
0.00 0.00 288.00 252.00 cl
0.00 0.00 288.00 252.00 cl
0.00 0.00 288.00 252.00 cl
/Font1 findfont 15 s
0 0 0 srgb
155.71 10.80 (Entities/Activity) .5 0 t
0.00 0.00 288.00 252.00 cl
0.00 0.00 288.00 252.00 cl
/Font1 findfont 15 s
0 0 0 srgb
21.57 74.75 (Activity dur) 90 ta
-0.150 (ation \(s\)) tb gr
0.00 0.00 288.00 252.00 cl
0.00 0.00 288.00 252.00 cl
0.00 0.00 288.00 252.00 cl
0.00 0.00 288.00 252.00 cl
ep
%%Trailer
%%Pages: 1
%%EOF
