%!PS-Adobe-3.0 EPSF-3.0
%%DocumentNeededResources: font Helvetica
%%+ font Helvetica-Bold
%%+ font Helvetica-Oblique
%%+ font Helvetica-BoldOblique
%%+ font Symbol
%%Title: R Graphics Output
%%Creator: R Software
%%Pages: (atend)
%%BoundingBox: 0 0 324 360
%%EndComments
%%BeginProlog
/bp  { gs sRGB gs } def
% begin .ps.prolog
/gs  { gsave } bind def
/gr  { grestore } bind def
/ep  { showpage gr gr } bind def
/m   { moveto } bind def
/l  { rlineto } bind def
/np  { newpath } bind def
/cp  { closepath } bind def
/f   { fill } bind def
/o   { stroke } bind def
/c   { newpath 0 360 arc } bind def
/r   { 4 2 roll moveto 1 copy 3 -1 roll exch 0 exch rlineto 0 rlineto -1 mul 0 exch rlineto closepath } bind def
/p1  { stroke } bind def
/p2  { gsave bg fill grestore newpath } bind def
/p3  { gsave bg fill grestore stroke } bind def
/p6  { gsave bg eofill grestore newpath } bind def
/p7  { gsave bg eofill grestore stroke } bind def
/t   { 5 -2 roll moveto gsave rotate
       1 index stringwidth pop
       mul neg 0 rmoveto show grestore } bind def
/ta  { 4 -2 roll moveto gsave rotate show } bind def
/tb  { 2 -1 roll 0 rmoveto show } bind def
/cl  { grestore gsave newpath 3 index 3 index moveto 1 index
       4 -1 roll lineto  exch 1 index lineto lineto
       closepath clip newpath } bind def
/rgb { setrgbcolor } bind def
/s   { scalefont setfont } bind def
% end   .ps.prolog
/sRGB { [ /CIEBasedABC
          << /DecodeLMN
               [ { dup 0.03928 le
                        {12.92321 div}
                        {0.055 add 1.055 div 2.4 exp }
                     ifelse
                 } bind dup dup
               ]
             /MatrixLMN [0.412457 0.212673 0.019334
                         0.357576 0.715152 0.119192
                         0.180437 0.072175 0.950301]
             /WhitePoint [0.9505 1.0 1.0890]
           >>
         ] setcolorspace } bind def
/srgb { setcolor } bind def
%%IncludeResource: font Helvetica
/Helvetica findfont
dup length dict begin
  {1 index /FID ne {def} {pop pop} ifelse} forall
  /Encoding ISOLatin1Encoding def
  currentdict
  end
/Font1 exch definefont pop
%%IncludeResource: font Helvetica-Bold
/Helvetica-Bold findfont
dup length dict begin
  {1 index /FID ne {def} {pop pop} ifelse} forall
  /Encoding ISOLatin1Encoding def
  currentdict
  end
/Font2 exch definefont pop
%%IncludeResource: font Helvetica-Oblique
/Helvetica-Oblique findfont
dup length dict begin
  {1 index /FID ne {def} {pop pop} ifelse} forall
  /Encoding ISOLatin1Encoding def
  currentdict
  end
/Font3 exch definefont pop
%%IncludeResource: font Helvetica-BoldOblique
/Helvetica-BoldOblique findfont
dup length dict begin
  {1 index /FID ne {def} {pop pop} ifelse} forall
  /Encoding ISOLatin1Encoding def
  currentdict
  end
/Font4 exch definefont pop
%%IncludeResource: font Symbol
/Symbol findfont
dup length dict begin
  {1 index /FID ne {def} {pop pop} ifelse} forall
  currentdict
  end
/Font5 exch definefont pop
%%EndProlog
%%Page: 1 1
bp
0.00 0.00 324.00 360.00 cl
0.00 0.00 324.00 360.00 cl
0.00 0.00 324.00 360.00 cl
/bg { 1 1 1 srgb } def
1 1 1 srgb
1.06 setlinewidth
[] 0 setdash
1 setlinecap
1 setlinejoin
10.00 setmiterlimit
0.00 -0.00 324.00 360.00 r p3
0.00 0.00 324.00 360.00 cl
0.00 0.00 324.00 360.00 cl
0.00 0.00 324.00 360.00 cl
63.09 44.46 309.60 345.60 cl
/bg { 0.8980 0.8980 0.8980 srgb } def
63.09 44.46 246.51 301.14 r p2
0.9490 0.9490 0.9490 srgb
0.53 setlinewidth
[] 0 setdash
0 setlinecap
1 setlinejoin
10.00 setmiterlimit
np
63.09 71.58 m
246.51 0 l
o
np
63.09 145.93 m
246.51 0 l
o
np
63.09 220.27 m
246.51 0 l
o
np
63.09 294.62 m
246.51 0 l
o
1 1 1 srgb
1.06 setlinewidth
[] 0 setdash
np
63.09 108.75 m
246.51 0 l
o
np
63.09 183.10 m
246.51 0 l
o
np
63.09 257.45 m
246.51 0 l
o
np
63.09 331.80 m
246.51 0 l
o
np
130.32 44.46 m
0 301.14 l
o
np
242.37 44.46 m
0 301.14 l
o
0.2000 0.2000 0.2000 srgb
np
130.32 331.80 m
0 0 l
o
np
130.32 216.71 m
0 -155.54 l
o
/bg { 1 1 1 srgb } def
1 setlinecap
np
 88.30 331.80 m
0 -115.09 l
84.04 0 l
0 115.09 l
-84.04 0 l
cp p3
2.13 setlinewidth
[] 0 setdash
0 setlinecap
np
88.30 262.51 m
84.04 0 l
o
/bg { 0 0 0 srgb } def
242.37 137.00 2.13 c p2
242.37 65.63 2.13 c p2
242.37 73.06 2.13 c p2
242.37 108.75 2.13 c p2
242.37 81.39 2.13 c p2
242.37 70.68 2.13 c p2
242.37 68.90 2.13 c p2
242.37 58.19 2.13 c p2
242.37 61.76 2.13 c p2
242.37 71.58 2.13 c p2
242.37 77.82 2.13 c p2
1.06 setlinewidth
[] 0 setdash
np
242.37 331.80 m
0 0 l
o
np
242.37 260.42 m
0 -102.00 l
o
/bg { 1 1 1 srgb } def
1 setlinecap
np
 200.35 331.80 m
0 -71.38 l
84.04 0 l
0 71.38 l
-84.04 0 l
cp p3
2.13 setlinewidth
[] 0 setdash
0 setlinecap
np
200.35 288.38 m
84.04 0 l
o
0 0 0 srgb
0.75 setlinewidth
[] 0 setdash
1 setlinecap
131.11 163.22 2.13 c p1
130.39 268.67 2.13 c p1
125.67 215.30 2.13 c p1
134.35 173.91 2.13 c p1
127.61 212.72 2.13 c p1
129.33 169.04 2.13 c p1
133.95 109.10 2.13 c p1
127.52 181.67 2.13 c p1
128.60 230.96 2.13 c p1
132.78 236.98 2.13 c p1
127.89 331.80 2.13 c p1
128.28 203.09 2.13 c p1
133.16 251.82 2.13 c p1
128.69 225.55 2.13 c p1
135.52 189.29 2.13 c p1
134.88 331.70 2.13 c p1
127.27 153.31 2.13 c p1
128.36 293.07 2.13 c p1
131.81 84.35 2.13 c p1
124.73 269.96 2.13 c p1
134.25 227.97 2.13 c p1
128.25 61.11 2.13 c p1
128.52 232.72 2.13 c p1
134.04 331.84 2.13 c p1
128.39 278.03 2.13 c p1
126.38 331.70 2.13 c p1
128.37 331.72 2.13 c p1
129.73 257.43 2.13 c p1
129.49 331.72 2.13 c p1
134.08 277.65 2.13 c p1
125.17 331.72 2.13 c p1
130.84 331.74 2.13 c p1
131.93 331.73 2.13 c p1
128.93 331.84 2.13 c p1
128.46 249.14 2.13 c p1
126.41 102.02 2.13 c p1
129.04 326.67 2.13 c p1
134.08 331.85 2.13 c p1
127.31 331.88 2.13 c p1
135.57 282.15 2.13 c p1
135.66 331.78 2.13 c p1
130.46 331.90 2.13 c p1
126.22 331.89 2.13 c p1
133.25 331.84 2.13 c p1
129.87 259.56 2.13 c p1
130.02 242.62 2.13 c p1
133.07 331.90 2.13 c p1
129.12 297.53 2.13 c p1
130.10 265.80 2.13 c p1
129.59 331.72 2.13 c p1
125.44 156.28 2.13 c p1
133.06 257.40 2.13 c p1
127.69 331.76 2.13 c p1
127.54 139.98 2.13 c p1
130.80 331.89 2.13 c p1
129.02 212.78 2.13 c p1
134.71 155.78 2.13 c p1
133.50 216.82 2.13 c p1
134.71 153.29 2.13 c p1
127.41 129.00 2.13 c p1
127.61 331.86 2.13 c p1
135.12 331.82 2.13 c p1
127.23 331.84 2.13 c p1
125.25 130.95 2.13 c p1
127.81 84.14 2.13 c p1
130.19 331.71 2.13 c p1
126.69 331.69 2.13 c p1
135.53 331.86 2.13 c p1
132.48 227.98 2.13 c p1
129.88 193.10 2.13 c p1
125.55 331.80 2.13 c p1
129.75 145.99 2.13 c p1
125.39 153.37 2.13 c p1
126.99 255.11 2.13 c p1
133.67 170.66 2.13 c p1
135.86 331.90 2.13 c p1
128.69 257.47 2.13 c p1
135.20 247.74 2.13 c p1
135.75 162.04 2.13 c p1
130.53 155.18 2.13 c p1
125.14 331.83 2.13 c p1
127.90 331.89 2.13 c p1
128.25 237.85 2.13 c p1
128.50 180.16 2.13 c p1
128.56 125.76 2.13 c p1
128.97 190.23 2.13 c p1
130.65 225.37 2.13 c p1
130.98 210.97 2.13 c p1
128.99 331.91 2.13 c p1
128.98 114.75 2.13 c p1
134.36 331.89 2.13 c p1
129.90 331.77 2.13 c p1
135.40 100.36 2.13 c p1
132.87 220.22 2.13 c p1
134.54 331.82 2.13 c p1
126.61 218.97 2.13 c p1
132.27 161.89 2.13 c p1
132.63 252.38 2.13 c p1
135.12 262.50 2.13 c p1
124.92 331.86 2.13 c p1
124.79 170.69 2.13 c p1
133.58 326.06 2.13 c p1
126.45 232.66 2.13 c p1
133.68 247.55 2.13 c p1
135.80 194.92 2.13 c p1
134.63 232.81 2.13 c p1
132.49 331.89 2.13 c p1
131.85 195.53 2.13 c p1
133.47 156.99 2.13 c p1
129.58 265.71 2.13 c p1
130.42 183.10 2.13 c p1
134.30 229.40 2.13 c p1
129.38 331.87 2.13 c p1
133.65 331.77 2.13 c p1
125.01 161.67 2.13 c p1
129.53 331.84 2.13 c p1
131.96 331.69 2.13 c p1
128.04 231.81 2.13 c p1
130.78 211.24 2.13 c p1
132.82 262.52 2.13 c p1
131.73 171.12 2.13 c p1
131.55 320.78 2.13 c p1
126.31 331.81 2.13 c p1
133.22 207.85 2.13 c p1
127.21 331.71 2.13 c p1
132.88 233.59 2.13 c p1
132.82 232.76 2.13 c p1
129.73 262.58 2.13 c p1
127.48 136.31 2.13 c p1
124.76 143.59 2.13 c p1
129.28 228.67 2.13 c p1
125.05 156.26 2.13 c p1
130.52 232.81 2.13 c p1
127.50 251.53 2.13 c p1
131.15 282.05 2.13 c p1
135.65 197.29 2.13 c p1
124.77 331.74 2.13 c p1
132.10 225.39 2.13 c p1
133.24 202.79 2.13 c p1
131.79 331.76 2.13 c p1
127.87 242.59 2.13 c p1
126.99 225.60 2.13 c p1
133.94 331.86 2.13 c p1
128.62 331.76 2.13 c p1
135.37 331.90 2.13 c p1
134.16 261.88 2.13 c p1
134.32 140.33 2.13 c p1
127.55 331.70 2.13 c p1
125.45 224.51 2.13 c p1
132.06 247.97 2.13 c p1
135.92 272.25 2.13 c p1
131.77 331.80 2.13 c p1
126.56 233.84 2.13 c p1
132.64 331.79 2.13 c p1
129.82 256.49 2.13 c p1
127.65 331.82 2.13 c p1
130.96 183.05 2.13 c p1
131.10 331.80 2.13 c p1
133.62 331.76 2.13 c p1
130.41 331.86 2.13 c p1
125.00 331.77 2.13 c p1
135.01 254.54 2.13 c p1
135.42 258.25 2.13 c p1
128.91 331.78 2.13 c p1
126.68 331.69 2.13 c p1
133.49 252.61 2.13 c p1
133.13 331.83 2.13 c p1
128.87 331.90 2.13 c p1
124.75 127.85 2.13 c p1
127.26 274.89 2.13 c p1
133.71 331.68 2.13 c p1
124.87 331.76 2.13 c p1
124.87 331.73 2.13 c p1
125.82 331.82 2.13 c p1
131.02 267.97 2.13 c p1
133.62 266.96 2.13 c p1
126.32 331.76 2.13 c p1
129.41 331.89 2.13 c p1
128.42 331.85 2.13 c p1
127.93 331.69 2.13 c p1
135.92 285.42 2.13 c p1
127.05 331.79 2.13 c p1
129.49 331.86 2.13 c p1
133.89 191.31 2.13 c p1
124.97 244.04 2.13 c p1
127.68 331.69 2.13 c p1
126.93 331.78 2.13 c p1
133.51 331.88 2.13 c p1
133.08 331.72 2.13 c p1
125.28 280.42 2.13 c p1
126.48 264.29 2.13 c p1
125.01 331.79 2.13 c p1
125.07 232.74 2.13 c p1
130.54 223.36 2.13 c p1
131.43 331.69 2.13 c p1
134.11 331.69 2.13 c p1
135.12 267.94 2.13 c p1
132.15 331.86 2.13 c p1
132.26 331.75 2.13 c p1
130.74 200.00 2.13 c p1
130.09 277.06 2.13 c p1
135.29 232.84 2.13 c p1
126.88 331.81 2.13 c p1
127.47 331.68 2.13 c p1
129.92 331.86 2.13 c p1
134.90 278.76 2.13 c p1
135.28 278.29 2.13 c p1
131.17 331.68 2.13 c p1
127.86 282.11 2.13 c p1
128.62 331.80 2.13 c p1
131.57 189.75 2.13 c p1
132.75 331.85 2.13 c p1
131.22 331.88 2.13 c p1
131.28 100.50 2.13 c p1
135.34 256.05 2.13 c p1
126.12 331.86 2.13 c p1
126.23 331.90 2.13 c p1
126.10 223.80 2.13 c p1
126.58 269.10 2.13 c p1
128.66 331.84 2.13 c p1
133.82 331.80 2.13 c p1
125.77 260.11 2.13 c p1
133.52 331.72 2.13 c p1
133.50 331.88 2.13 c p1
126.37 331.85 2.13 c p1
129.68 207.17 2.13 c p1
133.74 234.49 2.13 c p1
135.42 331.70 2.13 c p1
131.90 331.76 2.13 c p1
133.39 331.89 2.13 c p1
134.05 232.72 2.13 c p1
125.29 214.42 2.13 c p1
135.54 271.95 2.13 c p1
127.07 286.56 2.13 c p1
125.60 331.71 2.13 c p1
131.81 259.82 2.13 c p1
130.86 331.73 2.13 c p1
133.81 331.70 2.13 c p1
135.68 331.87 2.13 c p1
126.68 114.77 2.13 c p1
135.38 249.76 2.13 c p1
126.49 153.43 2.13 c p1
133.35 331.70 2.13 c p1
134.16 331.78 2.13 c p1
125.77 230.05 2.13 c p1
132.83 278.51 2.13 c p1
132.92 331.75 2.13 c p1
130.67 331.83 2.13 c p1
130.15 331.89 2.13 c p1
126.14 200.75 2.13 c p1
131.93 249.00 2.13 c p1
125.14 298.69 2.13 c p1
126.10 294.39 2.13 c p1
125.73 283.87 2.13 c p1
125.64 264.30 2.13 c p1
126.54 207.67 2.13 c p1
134.49 198.04 2.13 c p1
133.42 331.69 2.13 c p1
128.65 244.43 2.13 c p1
135.10 239.65 2.13 c p1
128.17 331.70 2.13 c p1
126.81 331.88 2.13 c p1
135.52 331.87 2.13 c p1
129.78 235.97 2.13 c p1
128.61 232.88 2.13 c p1
133.75 227.61 2.13 c p1
135.73 331.90 2.13 c p1
128.83 331.82 2.13 c p1
126.70 222.69 2.13 c p1
127.04 232.86 2.13 c p1
126.49 257.53 2.13 c p1
127.92 247.63 2.13 c p1
126.87 232.86 2.13 c p1
126.98 232.80 2.13 c p1
125.49 222.41 2.13 c p1
134.35 251.25 2.13 c p1
131.08 232.77 2.13 c p1
128.01 207.77 2.13 c p1
125.64 192.83 2.13 c p1
131.75 247.61 2.13 c p1
133.14 232.74 2.13 c p1
125.35 161.75 2.13 c p1
130.42 331.89 2.13 c p1
132.44 247.71 2.13 c p1
135.74 247.54 2.13 c p1
126.76 282.20 2.13 c p1
134.10 331.74 2.13 c p1
132.83 259.15 2.13 c p1
135.88 213.13 2.13 c p1
126.70 331.74 2.13 c p1
135.02 210.48 2.13 c p1
133.02 236.98 2.13 c p1
130.39 257.49 2.13 c p1
130.21 153.31 2.13 c p1
134.00 207.84 2.13 c p1
124.97 173.36 2.13 c p1
133.09 282.20 2.13 c p1
130.03 166.37 2.13 c p1
133.41 331.88 2.13 c p1
134.74 282.24 2.13 c p1
133.36 232.85 2.13 c p1
130.93 331.75 2.13 c p1
131.18 282.18 2.13 c p1
135.83 331.78 2.13 c p1
125.28 315.15 2.13 c p1
125.36 173.40 2.13 c p1
126.85 183.00 2.13 c p1
134.61 216.12 2.13 c p1
133.81 139.79 2.13 c p1
128.46 230.39 2.13 c p1
133.36 331.87 2.13 c p1
128.72 243.82 2.13 c p1
133.11 187.19 2.13 c p1
129.35 153.43 2.13 c p1
129.66 180.81 2.13 c p1
131.59 200.56 2.13 c p1
134.58 331.69 2.13 c p1
127.57 247.52 2.13 c p1
127.18 237.34 2.13 c p1
125.15 264.36 2.13 c p1
132.59 123.26 2.13 c p1
131.79 331.73 2.13 c p1
133.41 257.52 2.13 c p1
128.20 230.79 2.13 c p1
133.77 241.08 2.13 c p1
131.94 153.34 2.13 c p1
125.26 282.04 2.13 c p1
133.82 133.48 2.13 c p1
132.84 331.85 2.13 c p1
133.04 153.43 2.13 c p1
127.44 331.69 2.13 c p1
133.46 331.82 2.13 c p1
131.21 331.69 2.13 c p1
131.36 331.82 2.13 c p1
133.25 205.41 2.13 c p1
131.63 331.83 2.13 c p1
132.65 331.70 2.13 c p1
129.29 331.80 2.13 c p1
125.55 331.90 2.13 c p1
129.33 265.68 2.13 c p1
130.50 331.82 2.13 c p1
132.68 257.44 2.13 c p1
132.04 331.78 2.13 c p1
128.60 229.78 2.13 c p1
129.36 267.96 2.13 c p1
135.74 111.16 2.13 c p1
130.59 331.85 2.13 c p1
125.75 249.08 2.13 c p1
132.59 214.73 2.13 c p1
129.19 212.93 2.13 c p1
133.06 331.82 2.13 c p1
126.67 182.99 2.13 c p1
134.72 331.72 2.13 c p1
239.81 268.79 2.13 c p1
246.71 294.55 2.13 c p1
238.50 137.11 2.13 c p1
247.53 280.27 2.13 c p1
241.10 284.81 2.13 c p1
247.09 288.12 2.13 c p1
240.25 186.46 2.13 c p1
239.84 167.63 2.13 c p1
245.96 293.09 2.13 c p1
244.03 331.73 2.13 c p1
242.59 297.19 2.13 c p1
241.35 246.48 2.13 c p1
244.42 65.71 2.13 c p1
240.92 282.34 2.13 c p1
247.40 331.88 2.13 c p1
244.80 315.14 2.13 c p1
237.64 266.74 2.13 c p1
245.24 273.56 2.13 c p1
242.90 232.86 2.13 c p1
241.98 331.70 2.13 c p1
242.84 248.64 2.13 c p1
245.39 73.05 2.13 c p1
245.90 331.87 2.13 c p1
240.42 331.86 2.13 c p1
239.18 331.74 2.13 c p1
239.48 245.46 2.13 c p1
247.78 284.13 2.13 c p1
238.01 272.62 2.13 c p1
238.51 331.86 2.13 c p1
242.71 302.03 2.13 c p1
244.74 331.73 2.13 c p1
246.61 285.19 2.13 c p1
245.12 300.57 2.13 c p1
243.03 239.57 2.13 c p1
244.03 330.80 2.13 c p1
245.03 302.08 2.13 c p1
241.71 302.03 2.13 c p1
243.88 331.68 2.13 c p1
242.16 286.68 2.13 c p1
246.64 331.69 2.13 c p1
237.36 279.82 2.13 c p1
246.93 290.28 2.13 c p1
243.20 302.09 2.13 c p1
238.65 282.84 2.13 c p1
239.06 331.81 2.13 c p1
238.61 331.83 2.13 c p1
242.07 331.86 2.13 c p1
246.18 281.27 2.13 c p1
238.80 282.10 2.13 c p1
240.19 331.80 2.13 c p1
245.03 331.78 2.13 c p1
245.49 274.42 2.13 c p1
239.24 331.76 2.13 c p1
242.37 279.35 2.13 c p1
240.87 331.85 2.13 c p1
238.74 264.34 2.13 c p1
241.60 287.75 2.13 c p1
246.69 331.85 2.13 c p1
245.65 108.77 2.13 c p1
238.83 282.68 2.13 c p1
238.30 266.47 2.13 c p1
243.10 274.13 2.13 c p1
246.24 331.76 2.13 c p1
238.40 331.86 2.13 c p1
236.84 323.25 2.13 c p1
236.77 284.44 2.13 c p1
247.38 270.87 2.13 c p1
246.99 267.22 2.13 c p1
241.39 261.54 2.13 c p1
243.39 282.21 2.13 c p1
240.91 288.41 2.13 c p1
243.39 249.93 2.13 c p1
244.38 331.79 2.13 c p1
242.72 331.88 2.13 c p1
243.90 236.36 2.13 c p1
242.13 272.71 2.13 c p1
243.49 331.86 2.13 c p1
241.94 264.52 2.13 c p1
237.72 331.79 2.13 c p1
246.69 274.42 2.13 c p1
238.66 257.43 2.13 c p1
239.05 331.78 2.13 c p1
236.85 331.69 2.13 c p1
239.70 284.90 2.13 c p1
243.63 282.06 2.13 c p1
247.40 259.21 2.13 c p1
245.82 331.91 2.13 c p1
243.72 293.70 2.13 c p1
239.83 275.49 2.13 c p1
245.57 298.27 2.13 c p1
243.54 331.85 2.13 c p1
247.20 276.82 2.13 c p1
240.23 282.21 2.13 c p1
245.19 288.44 2.13 c p1
242.30 285.43 2.13 c p1
238.60 272.27 2.13 c p1
237.50 331.73 2.13 c p1
238.75 284.31 2.13 c p1
240.59 283.81 2.13 c p1
243.57 310.72 2.13 c p1
246.94 272.37 2.13 c p1
240.51 331.88 2.13 c p1
243.84 331.82 2.13 c p1
246.83 281.31 2.13 c p1
238.50 331.89 2.13 c p1
244.71 331.84 2.13 c p1
244.04 271.79 2.13 c p1
244.69 291.00 2.13 c p1
244.03 258.58 2.13 c p1
237.33 233.47 2.13 c p1
241.50 331.90 2.13 c p1
246.21 317.58 2.13 c p1
241.65 310.69 2.13 c p1
247.64 331.70 2.13 c p1
243.84 263.59 2.13 c p1
236.90 230.42 2.13 c p1
240.81 296.97 2.13 c p1
239.00 270.84 2.13 c p1
242.28 281.31 2.13 c p1
239.99 331.69 2.13 c p1
239.23 331.80 2.13 c p1
247.82 261.91 2.13 c p1
241.30 282.36 2.13 c p1
239.13 255.66 2.13 c p1
240.50 260.39 2.13 c p1
240.38 239.50 2.13 c p1
245.01 315.17 2.13 c p1
247.96 272.63 2.13 c p1
242.13 301.96 2.13 c p1
240.77 331.71 2.13 c p1
239.39 260.33 2.13 c p1
246.87 276.73 2.13 c p1
238.76 331.81 2.13 c p1
241.46 257.52 2.13 c p1
244.89 331.75 2.13 c p1
244.79 315.06 2.13 c p1
245.93 331.76 2.13 c p1
238.05 280.06 2.13 c p1
238.88 276.54 2.13 c p1
246.54 302.06 2.13 c p1
241.95 273.01 2.13 c p1
243.84 259.45 2.13 c p1
239.28 331.86 2.13 c p1
247.14 258.16 2.13 c p1
245.67 331.75 2.13 c p1
247.38 81.31 2.13 c p1
238.51 331.71 2.13 c p1
241.73 331.90 2.13 c p1
244.03 282.07 2.13 c p1
239.07 331.83 2.13 c p1
246.03 331.82 2.13 c p1
240.74 331.72 2.13 c p1
244.61 256.31 2.13 c p1
247.19 253.33 2.13 c p1
246.31 331.91 2.13 c p1
242.38 331.77 2.13 c p1
239.09 262.12 2.13 c p1
237.37 331.81 2.13 c p1
240.81 331.74 2.13 c p1
244.83 207.16 2.13 c p1
237.54 158.45 2.13 c p1
238.91 331.82 2.13 c p1
245.63 331.70 2.13 c p1
243.80 331.70 2.13 c p1
241.11 331.73 2.13 c p1
246.57 222.91 2.13 c p1
243.26 253.78 2.13 c p1
239.54 331.69 2.13 c p1
243.41 282.18 2.13 c p1
244.55 331.78 2.13 c p1
244.49 331.88 2.13 c p1
245.03 225.88 2.13 c p1
242.99 331.79 2.13 c p1
247.39 331.73 2.13 c p1
240.16 200.90 2.13 c p1
238.74 70.69 2.13 c p1
238.90 331.89 2.13 c p1
241.50 298.83 2.13 c p1
243.80 331.88 2.13 c p1
246.06 331.76 2.13 c p1
241.36 331.70 2.13 c p1
243.10 331.69 2.13 c p1
241.15 259.51 2.13 c p1
241.59 258.54 2.13 c p1
241.03 331.69 2.13 c p1
241.77 331.77 2.13 c p1
240.43 200.88 2.13 c p1
242.68 331.75 2.13 c p1
246.69 331.84 2.13 c p1
241.75 243.81 2.13 c p1
245.21 331.90 2.13 c p1
241.98 331.76 2.13 c p1
240.95 316.10 2.13 c p1
241.12 68.91 2.13 c p1
246.69 282.24 2.13 c p1
246.62 331.82 2.13 c p1
243.90 331.85 2.13 c p1
241.29 331.79 2.13 c p1
244.31 233.54 2.13 c p1
241.47 241.74 2.13 c p1
238.24 331.70 2.13 c p1
242.87 282.07 2.13 c p1
244.55 331.76 2.13 c p1
247.78 240.43 2.13 c p1
236.87 331.74 2.13 c p1
237.72 331.80 2.13 c p1
240.57 320.55 2.13 c p1
246.23 227.50 2.13 c p1
239.20 331.80 2.13 c p1
236.82 331.85 2.13 c p1
239.66 58.15 2.13 c p1
240.48 249.07 2.13 c p1
246.19 331.70 2.13 c p1
237.08 331.86 2.13 c p1
246.49 261.29 2.13 c p1
240.04 331.90 2.13 c p1
244.54 331.81 2.13 c p1
239.97 282.22 2.13 c p1
243.00 232.73 2.13 c p1
238.98 220.95 2.13 c p1
238.49 331.70 2.13 c p1
244.34 265.85 2.13 c p1
244.61 331.90 2.13 c p1
246.10 331.70 2.13 c p1
237.70 61.82 2.13 c p1
245.65 247.26 2.13 c p1
243.22 253.94 2.13 c p1
245.22 331.91 2.13 c p1
242.00 243.40 2.13 c p1
236.83 331.82 2.13 c p1
239.09 331.75 2.13 c p1
238.69 331.81 2.13 c p1
247.02 303.00 2.13 c p1
247.21 244.60 2.13 c p1
247.08 193.01 2.13 c p1
247.16 331.80 2.13 c p1
247.32 331.80 2.13 c p1
244.31 71.64 2.13 c p1
238.37 254.83 2.13 c p1
237.76 331.70 2.13 c p1
238.01 331.69 2.13 c p1
239.80 331.78 2.13 c p1
240.38 235.97 2.13 c p1
244.90 206.52 2.13 c p1
243.42 278.76 2.13 c p1
244.46 258.31 2.13 c p1
240.39 331.83 2.13 c p1
247.62 248.24 2.13 c p1
247.34 236.00 2.13 c p1
244.27 257.41 2.13 c p1
238.90 253.68 2.13 c p1
243.22 331.72 2.13 c p1
243.91 77.93 2.13 c p1
245.95 232.88 2.13 c p1
238.97 263.07 2.13 c p1
239.90 331.73 2.13 c p1
246.67 265.77 2.13 c p1
244.30 331.72 2.13 c p1
247.48 242.38 2.13 c p1
0.00 0.00 324.00 360.00 cl
0.00 0.00 324.00 360.00 cl
0.00 0.00 324.00 360.00 cl
/Font1 findfont 14 s
0.4980 0.4980 0.4980 srgb
56.00 103.73 (0.25) 1 0 t
56.00 178.07 (0.50) 1 0 t
56.00 252.42 (0.75) 1 0 t
56.00 326.77 (1.00) 1 0 t
0.00 0.00 324.00 360.00 cl
0.00 0.00 324.00 360.00 cl
0.4980 0.4980 0.4980 srgb
1.06 setlinewidth
[] 0 setdash
0 setlinecap
1 setlinejoin
10.00 setmiterlimit
np
58.84 108.75 m
4.25 0 l
o
np
58.84 183.10 m
4.25 0 l
o
np
58.84 257.45 m
4.25 0 l
o
np
58.84 331.80 m
4.25 0 l
o
0.00 0.00 324.00 360.00 cl
0.00 0.00 324.00 360.00 cl
0.00 0.00 324.00 360.00 cl
0.00 0.00 324.00 360.00 cl
0.00 0.00 324.00 360.00 cl
0.00 0.00 324.00 360.00 cl
0.4980 0.4980 0.4980 srgb
1.06 setlinewidth
[] 0 setdash
0 setlinecap
1 setlinejoin
10.00 setmiterlimit
np
130.32 40.21 m
0 4.25 l
o
np
242.37 40.21 m
0 4.25 l
o
0.00 0.00 324.00 360.00 cl
0.00 0.00 324.00 360.00 cl
/Font1 findfont 20 s
0.6000 0 0 srgb
57.52 23.02 (StreamStr) 0 ta
0.300 (ucture) tb gr
242.37 23.02 (AID) .5 0 t
0.00 0.00 324.00 360.00 cl
0.00 0.00 324.00 360.00 cl
0.00 0.00 324.00 360.00 cl
0.00 0.00 324.00 360.00 cl
0.00 0.00 324.00 360.00 cl
0.00 0.00 324.00 360.00 cl
0.00 0.00 324.00 360.00 cl
/Font1 findfont 20 s
0.6000 0 0 srgb
25.16 108.89 (Detection Accur) 90 ta
-0.200 (acy) tb gr
0.00 0.00 324.00 360.00 cl
0.00 0.00 324.00 360.00 cl
0.00 0.00 324.00 360.00 cl
0.00 0.00 324.00 360.00 cl
ep
%%Trailer
%%Pages: 1
%%EOF
