%!PS-Adobe-3.0 EPSF-3.0
%%DocumentNeededResources: font Helvetica
%%+ font Helvetica-Bold
%%+ font Helvetica-Oblique
%%+ font Helvetica-BoldOblique
%%+ font Symbol
%%Title: R Graphics Output
%%Creator: R Software
%%Pages: (atend)
%%BoundingBox: 0 0 288 266
%%EndComments
%%BeginProlog
/bp  { gs sRGB gs } def
% begin .ps.prolog
/gs  { gsave } bind def
/gr  { grestore } bind def
/ep  { showpage gr gr } bind def
/m   { moveto } bind def
/l  { rlineto } bind def
/np  { newpath } bind def
/cp  { closepath } bind def
/f   { fill } bind def
/o   { stroke } bind def
/c   { newpath 0 360 arc } bind def
/r   { 4 2 roll moveto 1 copy 3 -1 roll exch 0 exch rlineto 0 rlineto -1 mul 0 exch rlineto closepath } bind def
/p1  { stroke } bind def
/p2  { gsave bg fill grestore newpath } bind def
/p3  { gsave bg fill grestore stroke } bind def
/p6  { gsave bg eofill grestore newpath } bind def
/p7  { gsave bg eofill grestore stroke } bind def
/t   { 5 -2 roll moveto gsave rotate
       1 index stringwidth pop
       mul neg 0 rmoveto show grestore } bind def
/ta  { 4 -2 roll moveto gsave rotate show } bind def
/tb  { 2 -1 roll 0 rmoveto show } bind def
/cl  { grestore gsave newpath 3 index 3 index moveto 1 index
       4 -1 roll lineto  exch 1 index lineto lineto
       closepath clip newpath } bind def
/rgb { setrgbcolor } bind def
/s   { scalefont setfont } bind def
% end   .ps.prolog
/sRGB { [ /CIEBasedABC
          << /DecodeLMN
               [ { dup 0.03928 le
                        {12.92321 div}
                        {0.055 add 1.055 div 2.4 exp }
                     ifelse
                 } bind dup dup
               ]
             /MatrixLMN [0.412457 0.212673 0.019334
                         0.357576 0.715152 0.119192
                         0.180437 0.072175 0.950301]
             /WhitePoint [0.9505 1.0 1.0890]
           >>
         ] setcolorspace } bind def
/srgb { setcolor } bind def
%%IncludeResource: font Helvetica
/Helvetica findfont
dup length dict begin
  {1 index /FID ne {def} {pop pop} ifelse} forall
  /Encoding ISOLatin1Encoding def
  currentdict
  end
/Font1 exch definefont pop
%%IncludeResource: font Helvetica-Bold
/Helvetica-Bold findfont
dup length dict begin
  {1 index /FID ne {def} {pop pop} ifelse} forall
  /Encoding ISOLatin1Encoding def
  currentdict
  end
/Font2 exch definefont pop
%%IncludeResource: font Helvetica-Oblique
/Helvetica-Oblique findfont
dup length dict begin
  {1 index /FID ne {def} {pop pop} ifelse} forall
  /Encoding ISOLatin1Encoding def
  currentdict
  end
/Font3 exch definefont pop
%%IncludeResource: font Helvetica-BoldOblique
/Helvetica-BoldOblique findfont
dup length dict begin
  {1 index /FID ne {def} {pop pop} ifelse} forall
  /Encoding ISOLatin1Encoding def
  currentdict
  end
/Font4 exch definefont pop
%%IncludeResource: font Symbol
/Symbol findfont
dup length dict begin
  {1 index /FID ne {def} {pop pop} ifelse} forall
  currentdict
  end
/Font5 exch definefont pop
%%EndProlog
%%Page: 1 1
bp
0.00 0.00 288.00 266.40 cl
0.00 0.00 288.00 266.40 cl
0.00 0.00 288.00 266.40 cl
/bg { 1 1 1 srgb } def
1 1 1 srgb
1.06 setlinewidth
[] 0 setdash
1 setlinecap
1 setlinejoin
10.00 setmiterlimit
0.00 0.00 288.00 266.40 r p3
0.00 0.00 288.00 266.40 cl
0.00 0.00 288.00 266.40 cl
0.00 0.00 288.00 266.40 cl
99.14 43.03 273.60 252.00 cl
/bg { 1 1 1 srgb } def
99.14 43.03 174.46 208.97 r p2
0.9804 0.9804 0.9804 srgb
1.06 setlinewidth
[] 0 setdash
0 setlinecap
1 setlinejoin
10.00 setmiterlimit
np
126.89 43.03 m
0 208.97 l
o
np
166.54 43.03 m
0 208.97 l
o
np
206.19 43.03 m
0 208.97 l
o
np
245.84 43.03 m
0 208.97 l
o
0.8980 0.8980 0.8980 srgb
0.43 setlinewidth
[] 0 setdash
np
99.14 51.28 m
174.46 0 l
o
np
99.14 65.02 m
174.46 0 l
o
np
99.14 78.77 m
174.46 0 l
o
np
99.14 92.52 m
174.46 0 l
o
np
99.14 106.27 m
174.46 0 l
o
np
99.14 120.02 m
174.46 0 l
o
np
99.14 133.77 m
174.46 0 l
o
np
99.14 147.51 m
174.46 0 l
o
np
99.14 161.26 m
174.46 0 l
o
np
99.14 175.01 m
174.46 0 l
o
np
99.14 188.76 m
174.46 0 l
o
np
99.14 202.51 m
174.46 0 l
o
np
99.14 216.25 m
174.46 0 l
o
np
99.14 230.00 m
174.46 0 l
o
np
99.14 243.75 m
174.46 0 l
o
np
107.07 43.03 m
0 208.97 l
o
np
146.72 43.03 m
0 208.97 l
o
np
186.37 43.03 m
0 208.97 l
o
np
226.02 43.03 m
0 208.97 l
o
np
265.67 43.03 m
0 208.97 l
o
/bg { 0.9373 0.9529 1 srgb } def
107.07 45.09 106.10 12.37 r p2
/bg { 0.7412 0.8431 0.9059 srgb } def
213.17 45.09 43.61 12.37 r p2
/bg { 0.4196 0.6824 0.8392 srgb } def
256.78 45.09 5.39 12.37 r p2
/bg { 0.1922 0.5098 0.7412 srgb } def
262.17 45.09 2.24 12.37 r p2
/bg { 0.0314 0.3176 0.6118 srgb } def
264.40 45.09 1.27 12.37 r p2
/bg { 0.9373 0.9529 1 srgb } def
107.07 58.84 92.28 12.37 r p2
/bg { 0.7412 0.8431 0.9059 srgb } def
199.35 58.84 46.78 12.37 r p2
/bg { 0.4196 0.6824 0.8392 srgb } def
246.13 58.84 6.17 12.37 r p2
/bg { 0.1922 0.5098 0.7412 srgb } def
252.30 58.84 4.37 12.37 r p2
/bg { 0.0314 0.3176 0.6118 srgb } def
256.67 58.84 9.00 12.37 r p2
/bg { 0.9373 0.9529 1 srgb } def
107.07 72.59 104.71 12.37 r p2
/bg { 0.7412 0.8431 0.9059 srgb } def
211.77 72.59 38.85 12.37 r p2
/bg { 0.4196 0.6824 0.8392 srgb } def
250.63 72.59 8.04 12.37 r p2
/bg { 0.1922 0.5098 0.7412 srgb } def
258.67 72.59 4.34 12.37 r p2
/bg { 0.0314 0.3176 0.6118 srgb } def
263.01 72.59 2.66 12.37 r p2
/bg { 0.9373 0.9529 1 srgb } def
107.07 86.33 110.73 12.37 r p2
/bg { 0.7412 0.8431 0.9059 srgb } def
217.79 86.33 34.05 12.37 r p2
/bg { 0.4196 0.6824 0.8392 srgb } def
251.84 86.33 5.57 12.37 r p2
/bg { 0.1922 0.5098 0.7412 srgb } def
257.41 86.33 4.11 12.37 r p2
/bg { 0.0314 0.3176 0.6118 srgb } def
261.52 86.33 4.15 12.37 r p2
/bg { 0.9373 0.9529 1 srgb } def
107.07 100.08 114.64 12.37 r p2
/bg { 0.7412 0.8431 0.9059 srgb } def
221.71 100.08 36.81 12.37 r p2
/bg { 0.4196 0.6824 0.8392 srgb } def
258.51 100.08 4.42 12.37 r p2
/bg { 0.1922 0.5098 0.7412 srgb } def
262.93 100.08 1.59 12.37 r p2
/bg { 0.0314 0.3176 0.6118 srgb } def
264.52 100.08 1.15 12.37 r p2
/bg { 0.9373 0.9529 1 srgb } def
107.07 113.83 79.97 12.37 r p2
/bg { 0.7412 0.8431 0.9059 srgb } def
187.04 113.83 56.98 12.37 r p2
/bg { 0.4196 0.6824 0.8392 srgb } def
244.03 113.83 12.65 12.37 r p2
/bg { 0.1922 0.5098 0.7412 srgb } def
256.67 113.83 6.08 12.37 r p2
/bg { 0.0314 0.3176 0.6118 srgb } def
262.75 113.83 2.92 12.37 r p2
/bg { 0.9373 0.9529 1 srgb } def
107.07 127.58 69.46 12.37 r p2
/bg { 0.7412 0.8431 0.9059 srgb } def
176.52 127.58 50.70 12.37 r p2
/bg { 0.4196 0.6824 0.8392 srgb } def
227.22 127.58 16.33 12.37 r p2
/bg { 0.1922 0.5098 0.7412 srgb } def
243.55 127.58 9.94 12.37 r p2
/bg { 0.0314 0.3176 0.6118 srgb } def
253.49 127.58 12.18 12.37 r p2
/bg { 0.9373 0.9529 1 srgb } def
107.07 141.33 117.46 12.37 r p2
/bg { 0.7412 0.8431 0.9059 srgb } def
224.53 141.33 33.42 12.37 r p2
/bg { 0.4196 0.6824 0.8392 srgb } def
257.95 141.33 4.74 12.37 r p2
/bg { 0.1922 0.5098 0.7412 srgb } def
262.69 141.33 1.83 12.37 r p2
/bg { 0.0314 0.3176 0.6118 srgb } def
264.52 141.33 1.15 12.37 r p2
/bg { 0.9373 0.9529 1 srgb } def
107.07 155.07 87.88 12.37 r p2
/bg { 0.7412 0.8431 0.9059 srgb } def
194.95 155.07 54.43 12.37 r p2
/bg { 0.4196 0.6824 0.8392 srgb } def
249.38 155.07 10.43 12.37 r p2
/bg { 0.1922 0.5098 0.7412 srgb } def
259.81 155.07 3.15 12.37 r p2
/bg { 0.0314 0.3176 0.6118 srgb } def
262.96 155.07 2.71 12.37 r p2
/bg { 0.9373 0.9529 1 srgb } def
107.07 168.82 96.71 12.37 r p2
/bg { 0.7412 0.8431 0.9059 srgb } def
203.78 168.82 47.95 12.37 r p2
/bg { 0.4196 0.6824 0.8392 srgb } def
251.73 168.82 7.41 12.37 r p2
/bg { 0.1922 0.5098 0.7412 srgb } def
259.14 168.82 3.35 12.37 r p2
/bg { 0.0314 0.3176 0.6118 srgb } def
262.49 168.82 3.18 12.37 r p2
/bg { 0.9373 0.9529 1 srgb } def
107.07 182.57 75.96 12.37 r p2
/bg { 0.7412 0.8431 0.9059 srgb } def
183.02 182.57 55.43 12.37 r p2
/bg { 0.4196 0.6824 0.8392 srgb } def
238.45 182.57 12.84 12.37 r p2
/bg { 0.1922 0.5098 0.7412 srgb } def
251.29 182.57 7.49 12.37 r p2
/bg { 0.0314 0.3176 0.6118 srgb } def
258.79 182.57 6.88 12.37 r p2
/bg { 0.9373 0.9529 1 srgb } def
107.07 196.32 91.37 12.37 r p2
/bg { 0.7412 0.8431 0.9059 srgb } def
198.43 196.32 44.71 12.37 r p2
/bg { 0.4196 0.6824 0.8392 srgb } def
243.14 196.32 11.06 12.37 r p2
/bg { 0.1922 0.5098 0.7412 srgb } def
254.20 196.32 6.91 12.37 r p2
/bg { 0.0314 0.3176 0.6118 srgb } def
261.12 196.32 4.55 12.37 r p2
/bg { 0.9373 0.9529 1 srgb } def
107.07 210.07 97.00 12.37 r p2
/bg { 0.7412 0.8431 0.9059 srgb } def
204.07 210.07 41.97 12.37 r p2
/bg { 0.4196 0.6824 0.8392 srgb } def
246.04 210.07 9.23 12.37 r p2
/bg { 0.1922 0.5098 0.7412 srgb } def
255.28 210.07 5.13 12.37 r p2
/bg { 0.0314 0.3176 0.6118 srgb } def
260.41 210.07 5.26 12.37 r p2
/bg { 0.9373 0.9529 1 srgb } def
107.07 223.82 87.76 12.37 r p2
/bg { 0.7412 0.8431 0.9059 srgb } def
194.83 223.82 58.55 12.37 r p2
/bg { 0.4196 0.6824 0.8392 srgb } def
253.38 223.82 8.80 12.37 r p2
/bg { 0.1922 0.5098 0.7412 srgb } def
262.18 223.82 2.43 12.37 r p2
/bg { 0.0314 0.3176 0.6118 srgb } def
264.62 223.82 1.05 12.37 r p2
/bg { 0.9373 0.9529 1 srgb } def
107.07 237.56 98.76 12.37 r p2
/bg { 0.7412 0.8431 0.9059 srgb } def
205.83 237.56 44.43 12.37 r p2
/bg { 0.4196 0.6824 0.8392 srgb } def
250.25 237.56 7.46 12.37 r p2
/bg { 0.1922 0.5098 0.7412 srgb } def
257.71 237.56 4.26 12.37 r p2
/bg { 0.0314 0.3176 0.6118 srgb } def
261.96 237.56 3.71 12.37 r p2
0.4980 0.4980 0.4980 srgb
1.06 setlinewidth
[] 0 setdash
1 setlinecap
99.14 43.03 174.46 208.97 r p1
0.00 0.00 288.00 266.40 cl
0.00 0.00 288.00 266.40 cl
0.00 0.00 288.00 266.40 cl
/Font1 findfont 14 s
0 0 0 srgb
22.81 46.25 (Do) 0 ta
-0.210 (wnloads) tb gr
92.05 60.00 (Education) 1 0 t
92.05 73.75 (Email) 1 0 t
92.05 87.49 (Games) 1 0 t
92.05 101.24 (IM) 1 0 t
92.05 114.99 (Leisure) 1 0 t
69.48 128.74 (Lif) 0 ta
-0.420 (e) tb gr
31.37 142.49 (Microb) 0 ta
-0.280 (log) tb gr
92.05 156.24 (Music) 1 0 t
57.05 169.98 (Ne) 0 ta
-0.280 (ws) tb gr
92.05 183.73 (Reading) 1 0 t
92.05 197.48 (Search) 1 0 t
92.05 211.23 (Shopping) 1 0 t
92.05 224.98 (SN) 1 0 t
92.05 238.73 (Video) 1 0 t
0.00 0.00 288.00 266.40 cl
0.00 0.00 288.00 266.40 cl
0 0 0 srgb
1.06 setlinewidth
[] 0 setdash
0 setlinecap
1 setlinejoin
10.00 setmiterlimit
np
94.88 51.28 m
4.26 0 l
o
np
94.88 65.02 m
4.26 0 l
o
np
94.88 78.77 m
4.26 0 l
o
np
94.88 92.52 m
4.26 0 l
o
np
94.88 106.27 m
4.26 0 l
o
np
94.88 120.02 m
4.26 0 l
o
np
94.88 133.77 m
4.26 0 l
o
np
94.88 147.51 m
4.26 0 l
o
np
94.88 161.26 m
4.26 0 l
o
np
94.88 175.01 m
4.26 0 l
o
np
94.88 188.76 m
4.26 0 l
o
np
94.88 202.51 m
4.26 0 l
o
np
94.88 216.25 m
4.26 0 l
o
np
94.88 230.00 m
4.26 0 l
o
np
94.88 243.75 m
4.26 0 l
o
0.00 0.00 288.00 266.40 cl
0.00 0.00 288.00 266.40 cl
0.00 0.00 288.00 266.40 cl
0.00 0.00 288.00 266.40 cl
0.00 0.00 288.00 266.40 cl
0.00 0.00 288.00 266.40 cl
0 0 0 srgb
1.06 setlinewidth
[] 0 setdash
0 setlinecap
1 setlinejoin
10.00 setmiterlimit
np
107.07 38.77 m
0 4.26 l
o
np
146.72 38.77 m
0 4.26 l
o
np
186.37 38.77 m
0 4.26 l
o
np
226.02 38.77 m
0 4.26 l
o
np
265.67 38.77 m
0 4.26 l
o
0.00 0.00 288.00 266.40 cl
0.00 0.00 288.00 266.40 cl
/Font1 findfont 14 s
0 0 0 srgb
107.07 25.89 (0.00) .5 0 t
146.72 25.89 (0.25) .5 0 t
186.37 25.89 (0.50) .5 0 t
226.02 25.89 (0.75) .5 0 t
265.67 25.89 (1.00) .5 0 t
0.00 0.00 288.00 266.40 cl
0.00 0.00 288.00 266.40 cl
0.00 0.00 288.00 266.40 cl
0.00 0.00 288.00 266.40 cl
0.00 0.00 288.00 266.40 cl
/Font1 findfont 16 s
0 0 0 srgb
122.79 10.80 (Activity propor) 0 ta
0.640 (tion) tb gr
0.00 0.00 288.00 266.40 cl
0.00 0.00 288.00 266.40 cl
0.00 0.00 288.00 266.40 cl
0.00 0.00 288.00 266.40 cl
0.00 0.00 288.00 266.40 cl
0.00 0.00 288.00 266.40 cl
0.00 0.00 288.00 266.40 cl
0.00 0.00 288.00 266.40 cl
/bg { 1 1 1 srgb } def
103.66 136.11 60.73 106.40 r p2
0.00 0.00 288.00 266.40 cl
0.00 0.00 288.00 266.40 cl
/Font2 findfont 10 s
0 0 0 srgb
107.91 231.08 (c) 0 ta
-0.200 (lass) tb gr
0.00 0.00 288.00 266.40 cl
0.00 0.00 288.00 266.40 cl
/bg { 1 1 1 srgb } def
0.8000 0.8000 0.8000 srgb
1.06 setlinewidth
[] 0 setdash
1 setlinecap
1 setlinejoin
10.00 setmiterlimit
107.91 209.48 17.28 17.28 r p3
0.00 0.00 288.00 266.40 cl
0.00 0.00 288.00 266.40 cl
/bg { 0.9373 0.9529 1 srgb } def
107.91 209.48 17.28 17.28 r p2
0.00 0.00 288.00 266.40 cl
0.00 0.00 288.00 266.40 cl
/bg { 1 1 1 srgb } def
0.8000 0.8000 0.8000 srgb
1.06 setlinewidth
[] 0 setdash
1 setlinecap
1 setlinejoin
10.00 setmiterlimit
107.91 192.20 17.28 17.28 r p3
0.00 0.00 288.00 266.40 cl
0.00 0.00 288.00 266.40 cl
/bg { 0.7412 0.8431 0.9059 srgb } def
107.91 192.20 17.28 17.28 r p2
0.00 0.00 288.00 266.40 cl
0.00 0.00 288.00 266.40 cl
/bg { 1 1 1 srgb } def
0.8000 0.8000 0.8000 srgb
1.06 setlinewidth
[] 0 setdash
1 setlinecap
1 setlinejoin
10.00 setmiterlimit
107.91 174.92 17.28 17.28 r p3
0.00 0.00 288.00 266.40 cl
0.00 0.00 288.00 266.40 cl
/bg { 0.4196 0.6824 0.8392 srgb } def
107.91 174.92 17.28 17.28 r p2
0.00 0.00 288.00 266.40 cl
0.00 0.00 288.00 266.40 cl
/bg { 1 1 1 srgb } def
0.8000 0.8000 0.8000 srgb
1.06 setlinewidth
[] 0 setdash
1 setlinecap
1 setlinejoin
10.00 setmiterlimit
107.91 157.64 17.28 17.28 r p3
0.00 0.00 288.00 266.40 cl
0.00 0.00 288.00 266.40 cl
/bg { 0.1922 0.5098 0.7412 srgb } def
107.91 157.64 17.28 17.28 r p2
0.00 0.00 288.00 266.40 cl
0.00 0.00 288.00 266.40 cl
/bg { 1 1 1 srgb } def
0.8000 0.8000 0.8000 srgb
1.06 setlinewidth
[] 0 setdash
1 setlinecap
1 setlinejoin
10.00 setmiterlimit
107.91 140.36 17.28 17.28 r p3
0.00 0.00 288.00 266.40 cl
0.00 0.00 288.00 266.40 cl
/bg { 0.0314 0.3176 0.6118 srgb } def
107.91 140.36 17.28 17.28 r p2
0.00 0.00 288.00 266.40 cl
0.00 0.00 288.00 266.40 cl
/Font1 findfont 10 s
0 0 0 srgb
127.35 214.53 (tin) 0 ta
-0.150 (y) tb gr
0.00 0.00 288.00 266.40 cl
0.00 0.00 288.00 266.40 cl
/Font1 findfont 10 s
0 0 0 srgb
127.35 197.25 (small) 0 0 t
0.00 0.00 288.00 266.40 cl
0.00 0.00 288.00 266.40 cl
/Font1 findfont 10 s
0 0 0 srgb
127.35 179.97 (median) 0 0 t
0.00 0.00 288.00 266.40 cl
0.00 0.00 288.00 266.40 cl
/Font1 findfont 10 s
0 0 0 srgb
127.35 162.69 (large) 0 0 t
0.00 0.00 288.00 266.40 cl
0.00 0.00 288.00 266.40 cl
/Font1 findfont 10 s
0 0 0 srgb
127.35 145.41 (huge) 0 0 t
0.00 0.00 288.00 266.40 cl
0.00 0.00 288.00 266.40 cl
0.00 0.00 288.00 266.40 cl
0.00 0.00 288.00 266.40 cl
0.00 0.00 288.00 266.40 cl
0.00 0.00 288.00 266.40 cl
0.00 0.00 288.00 266.40 cl
0.00 0.00 288.00 266.40 cl
0.00 0.00 288.00 266.40 cl
0.00 0.00 288.00 266.40 cl
0.00 0.00 288.00 266.40 cl
0.00 0.00 288.00 266.40 cl
ep
%%Trailer
%%Pages: 1
%%EOF
