%!PS-Adobe-3.0 EPSF-3.0
%%DocumentNeededResources: font Helvetica
%%+ font Helvetica-Bold
%%+ font Helvetica-Oblique
%%+ font Helvetica-BoldOblique
%%+ font Symbol
%%Title: R Graphics Output
%%Creator: R Software
%%Pages: (atend)
%%BoundingBox: 0 0 288 266
%%EndComments
%%BeginProlog
/bp  { gs sRGB gs } def
% begin .ps.prolog
/gs  { gsave } bind def
/gr  { grestore } bind def
/ep  { showpage gr gr } bind def
/m   { moveto } bind def
/l  { rlineto } bind def
/np  { newpath } bind def
/cp  { closepath } bind def
/f   { fill } bind def
/o   { stroke } bind def
/c   { newpath 0 360 arc } bind def
/r   { 4 2 roll moveto 1 copy 3 -1 roll exch 0 exch rlineto 0 rlineto -1 mul 0 exch rlineto closepath } bind def
/p1  { stroke } bind def
/p2  { gsave bg fill grestore newpath } bind def
/p3  { gsave bg fill grestore stroke } bind def
/p6  { gsave bg eofill grestore newpath } bind def
/p7  { gsave bg eofill grestore stroke } bind def
/t   { 5 -2 roll moveto gsave rotate
       1 index stringwidth pop
       mul neg 0 rmoveto show grestore } bind def
/ta  { 4 -2 roll moveto gsave rotate show } bind def
/tb  { 2 -1 roll 0 rmoveto show } bind def
/cl  { grestore gsave newpath 3 index 3 index moveto 1 index
       4 -1 roll lineto  exch 1 index lineto lineto
       closepath clip newpath } bind def
/rgb { setrgbcolor } bind def
/s   { scalefont setfont } bind def
% end   .ps.prolog
/sRGB { [ /CIEBasedABC
          << /DecodeLMN
               [ { dup 0.03928 le
                        {12.92321 div}
                        {0.055 add 1.055 div 2.4 exp }
                     ifelse
                 } bind dup dup
               ]
             /MatrixLMN [0.412457 0.212673 0.019334
                         0.357576 0.715152 0.119192
                         0.180437 0.072175 0.950301]
             /WhitePoint [0.9505 1.0 1.0890]
           >>
         ] setcolorspace } bind def
/srgb { setcolor } bind def
%%IncludeResource: font Helvetica
/Helvetica findfont
dup length dict begin
  {1 index /FID ne {def} {pop pop} ifelse} forall
  /Encoding ISOLatin1Encoding def
  currentdict
  end
/Font1 exch definefont pop
%%IncludeResource: font Helvetica-Bold
/Helvetica-Bold findfont
dup length dict begin
  {1 index /FID ne {def} {pop pop} ifelse} forall
  /Encoding ISOLatin1Encoding def
  currentdict
  end
/Font2 exch definefont pop
%%IncludeResource: font Helvetica-Oblique
/Helvetica-Oblique findfont
dup length dict begin
  {1 index /FID ne {def} {pop pop} ifelse} forall
  /Encoding ISOLatin1Encoding def
  currentdict
  end
/Font3 exch definefont pop
%%IncludeResource: font Helvetica-BoldOblique
/Helvetica-BoldOblique findfont
dup length dict begin
  {1 index /FID ne {def} {pop pop} ifelse} forall
  /Encoding ISOLatin1Encoding def
  currentdict
  end
/Font4 exch definefont pop
%%IncludeResource: font Symbol
/Symbol findfont
dup length dict begin
  {1 index /FID ne {def} {pop pop} ifelse} forall
  currentdict
  end
/Font5 exch definefont pop
%%EndProlog
%%Page: 1 1
bp
0.00 0.00 288.00 266.40 cl
0.00 0.00 288.00 266.40 cl
0.00 0.00 288.00 266.40 cl
/bg { 1 1 1 srgb } def
1 1 1 srgb
1.06 setlinewidth
[] 0 setdash
1 setlinecap
1 setlinejoin
10.00 setmiterlimit
0.00 0.00 288.00 266.40 r p3
0.00 0.00 288.00 266.40 cl
0.00 0.00 288.00 266.40 cl
0.00 0.00 288.00 266.40 cl
99.14 43.03 273.60 252.00 cl
/bg { 1 1 1 srgb } def
99.14 43.03 174.46 208.97 r p2
0.9804 0.9804 0.9804 srgb
1.06 setlinewidth
[] 0 setdash
0 setlinecap
1 setlinejoin
10.00 setmiterlimit
np
126.89 43.03 m
0 208.97 l
o
np
166.54 43.03 m
0 208.97 l
o
np
206.19 43.03 m
0 208.97 l
o
np
245.84 43.03 m
0 208.97 l
o
0.8980 0.8980 0.8980 srgb
0.43 setlinewidth
[] 0 setdash
np
99.14 51.28 m
174.46 0 l
o
np
99.14 65.02 m
174.46 0 l
o
np
99.14 78.77 m
174.46 0 l
o
np
99.14 92.52 m
174.46 0 l
o
np
99.14 106.27 m
174.46 0 l
o
np
99.14 120.02 m
174.46 0 l
o
np
99.14 133.77 m
174.46 0 l
o
np
99.14 147.51 m
174.46 0 l
o
np
99.14 161.26 m
174.46 0 l
o
np
99.14 175.01 m
174.46 0 l
o
np
99.14 188.76 m
174.46 0 l
o
np
99.14 202.51 m
174.46 0 l
o
np
99.14 216.25 m
174.46 0 l
o
np
99.14 230.00 m
174.46 0 l
o
np
99.14 243.75 m
174.46 0 l
o
np
107.07 43.03 m
0 208.97 l
o
np
146.72 43.03 m
0 208.97 l
o
np
186.37 43.03 m
0 208.97 l
o
np
226.02 43.03 m
0 208.97 l
o
np
265.67 43.03 m
0 208.97 l
o
/bg { 0.9373 0.9529 1 srgb } def
107.07 45.09 107.57 12.37 r p2
/bg { 0.7412 0.8431 0.9059 srgb } def
214.64 45.09 40.24 12.37 r p2
/bg { 0.4196 0.6824 0.8392 srgb } def
254.88 45.09 6.18 12.37 r p2
/bg { 0.1922 0.5098 0.7412 srgb } def
261.05 45.09 2.88 12.37 r p2
/bg { 0.0314 0.3176 0.6118 srgb } def
263.94 45.09 1.73 12.37 r p2
/bg { 0.9373 0.9529 1 srgb } def
107.07 58.84 106.41 12.37 r p2
/bg { 0.7412 0.8431 0.9059 srgb } def
213.48 58.84 26.48 12.37 r p2
/bg { 0.4196 0.6824 0.8392 srgb } def
239.95 58.84 8.99 12.37 r p2
/bg { 0.1922 0.5098 0.7412 srgb } def
248.95 58.84 7.60 12.37 r p2
/bg { 0.0314 0.3176 0.6118 srgb } def
256.55 58.84 9.12 12.37 r p2
/bg { 0.9373 0.9529 1 srgb } def
107.07 72.59 90.69 12.37 r p2
/bg { 0.7412 0.8431 0.9059 srgb } def
197.76 72.59 42.75 12.37 r p2
/bg { 0.4196 0.6824 0.8392 srgb } def
240.51 72.59 11.55 12.37 r p2
/bg { 0.1922 0.5098 0.7412 srgb } def
252.06 72.59 7.59 12.37 r p2
/bg { 0.0314 0.3176 0.6118 srgb } def
259.64 72.59 6.03 12.37 r p2
/bg { 0.9373 0.9529 1 srgb } def
107.07 86.33 49.42 12.37 r p2
/bg { 0.7412 0.8431 0.9059 srgb } def
156.49 86.33 75.33 12.37 r p2
/bg { 0.4196 0.6824 0.8392 srgb } def
231.82 86.33 11.24 12.37 r p2
/bg { 0.1922 0.5098 0.7412 srgb } def
243.06 86.33 7.95 12.37 r p2
/bg { 0.0314 0.3176 0.6118 srgb } def
251.00 86.33 14.67 12.37 r p2
/bg { 0.9373 0.9529 1 srgb } def
107.07 100.08 89.84 12.37 r p2
/bg { 0.7412 0.8431 0.9059 srgb } def
196.90 100.08 44.77 12.37 r p2
/bg { 0.4196 0.6824 0.8392 srgb } def
241.67 100.08 10.67 12.37 r p2
/bg { 0.1922 0.5098 0.7412 srgb } def
252.34 100.08 6.58 12.37 r p2
/bg { 0.0314 0.3176 0.6118 srgb } def
258.91 100.08 6.76 12.37 r p2
/bg { 0.9373 0.9529 1 srgb } def
107.07 113.83 57.74 12.37 r p2
/bg { 0.7412 0.8431 0.9059 srgb } def
164.81 113.83 50.06 12.37 r p2
/bg { 0.4196 0.6824 0.8392 srgb } def
214.87 113.83 24.17 12.37 r p2
/bg { 0.1922 0.5098 0.7412 srgb } def
239.04 113.83 17.06 12.37 r p2
/bg { 0.0314 0.3176 0.6118 srgb } def
256.10 113.83 9.57 12.37 r p2
/bg { 0.9373 0.9529 1 srgb } def
107.07 127.58 79.20 12.37 r p2
/bg { 0.7412 0.8431 0.9059 srgb } def
186.27 127.58 35.12 12.37 r p2
/bg { 0.4196 0.6824 0.8392 srgb } def
221.39 127.58 14.00 12.37 r p2
/bg { 0.1922 0.5098 0.7412 srgb } def
235.39 127.58 11.91 12.37 r p2
/bg { 0.0314 0.3176 0.6118 srgb } def
247.30 127.58 18.37 12.37 r p2
/bg { 0.9373 0.9529 1 srgb } def
107.07 141.33 109.90 12.37 r p2
/bg { 0.7412 0.8431 0.9059 srgb } def
216.97 141.33 33.92 12.37 r p2
/bg { 0.4196 0.6824 0.8392 srgb } def
250.88 141.33 7.48 12.37 r p2
/bg { 0.1922 0.5098 0.7412 srgb } def
258.37 141.33 4.05 12.37 r p2
/bg { 0.0314 0.3176 0.6118 srgb } def
262.42 141.33 3.25 12.37 r p2
/bg { 0.9373 0.9529 1 srgb } def
107.07 155.07 92.10 12.37 r p2
/bg { 0.7412 0.8431 0.9059 srgb } def
199.17 155.07 45.94 12.37 r p2
/bg { 0.4196 0.6824 0.8392 srgb } def
245.11 155.07 8.99 12.37 r p2
/bg { 0.1922 0.5098 0.7412 srgb } def
254.10 155.07 5.21 12.37 r p2
/bg { 0.0314 0.3176 0.6118 srgb } def
259.31 155.07 6.36 12.37 r p2
/bg { 0.9373 0.9529 1 srgb } def
107.07 168.82 89.80 12.37 r p2
/bg { 0.7412 0.8431 0.9059 srgb } def
196.87 168.82 48.14 12.37 r p2
/bg { 0.4196 0.6824 0.8392 srgb } def
245.01 168.82 8.75 12.37 r p2
/bg { 0.1922 0.5098 0.7412 srgb } def
253.76 168.82 5.05 12.37 r p2
/bg { 0.0314 0.3176 0.6118 srgb } def
258.81 168.82 6.86 12.37 r p2
/bg { 0.9373 0.9529 1 srgb } def
107.07 182.57 46.12 12.37 r p2
/bg { 0.7412 0.8431 0.9059 srgb } def
153.19 182.57 40.83 12.37 r p2
/bg { 0.4196 0.6824 0.8392 srgb } def
194.02 182.57 23.81 12.37 r p2
/bg { 0.1922 0.5098 0.7412 srgb } def
217.83 182.57 22.31 12.37 r p2
/bg { 0.0314 0.3176 0.6118 srgb } def
240.14 182.57 25.53 12.37 r p2
/bg { 0.9373 0.9529 1 srgb } def
107.07 196.32 101.41 12.37 r p2
/bg { 0.7412 0.8431 0.9059 srgb } def
208.47 196.32 32.80 12.37 r p2
/bg { 0.4196 0.6824 0.8392 srgb } def
241.27 196.32 10.19 12.37 r p2
/bg { 0.1922 0.5098 0.7412 srgb } def
251.47 196.32 7.32 12.37 r p2
/bg { 0.0314 0.3176 0.6118 srgb } def
258.79 196.32 6.88 12.37 r p2
/bg { 0.9373 0.9529 1 srgb } def
107.07 210.07 71.74 12.37 r p2
/bg { 0.7412 0.8431 0.9059 srgb } def
178.80 210.07 47.02 12.37 r p2
/bg { 0.4196 0.6824 0.8392 srgb } def
225.82 210.07 14.60 12.37 r p2
/bg { 0.1922 0.5098 0.7412 srgb } def
240.42 210.07 9.52 12.37 r p2
/bg { 0.0314 0.3176 0.6118 srgb } def
249.94 210.07 15.73 12.37 r p2
/bg { 0.9373 0.9529 1 srgb } def
107.07 223.82 71.46 12.37 r p2
/bg { 0.7412 0.8431 0.9059 srgb } def
178.53 223.82 65.11 12.37 r p2
/bg { 0.4196 0.6824 0.8392 srgb } def
243.64 223.82 10.71 12.37 r p2
/bg { 0.1922 0.5098 0.7412 srgb } def
254.35 223.82 5.72 12.37 r p2
/bg { 0.0314 0.3176 0.6118 srgb } def
260.07 223.82 5.60 12.37 r p2
/bg { 0.9373 0.9529 1 srgb } def
107.07 237.56 96.43 12.37 r p2
/bg { 0.7412 0.8431 0.9059 srgb } def
203.50 237.56 45.78 12.37 r p2
/bg { 0.4196 0.6824 0.8392 srgb } def
249.28 237.56 7.10 12.37 r p2
/bg { 0.1922 0.5098 0.7412 srgb } def
256.37 237.56 4.39 12.37 r p2
/bg { 0.0314 0.3176 0.6118 srgb } def
260.76 237.56 4.91 12.37 r p2
0.4980 0.4980 0.4980 srgb
1.06 setlinewidth
[] 0 setdash
1 setlinecap
99.14 43.03 174.46 208.97 r p1
0.00 0.00 288.00 266.40 cl
0.00 0.00 288.00 266.40 cl
0.00 0.00 288.00 266.40 cl
/Font1 findfont 14 s
0 0 0 srgb
22.81 46.25 (Do) 0 ta
-0.210 (wnloads) tb gr
92.05 60.00 (Education) 1 0 t
92.05 73.75 (Email) 1 0 t
92.05 87.49 (Games) 1 0 t
92.05 101.24 (IM) 1 0 t
92.05 114.99 (Leisure) 1 0 t
69.48 128.74 (Lif) 0 ta
-0.420 (e) tb gr
31.37 142.49 (Microb) 0 ta
-0.280 (log) tb gr
92.05 156.24 (Music) 1 0 t
57.05 169.98 (Ne) 0 ta
-0.280 (ws) tb gr
92.05 183.73 (Reading) 1 0 t
92.05 197.48 (Search) 1 0 t
92.05 211.23 (Shopping) 1 0 t
92.05 224.98 (SN) 1 0 t
92.05 238.73 (Video) 1 0 t
0.00 0.00 288.00 266.40 cl
0.00 0.00 288.00 266.40 cl
0 0 0 srgb
1.06 setlinewidth
[] 0 setdash
0 setlinecap
1 setlinejoin
10.00 setmiterlimit
np
94.88 51.28 m
4.26 0 l
o
np
94.88 65.02 m
4.26 0 l
o
np
94.88 78.77 m
4.26 0 l
o
np
94.88 92.52 m
4.26 0 l
o
np
94.88 106.27 m
4.26 0 l
o
np
94.88 120.02 m
4.26 0 l
o
np
94.88 133.77 m
4.26 0 l
o
np
94.88 147.51 m
4.26 0 l
o
np
94.88 161.26 m
4.26 0 l
o
np
94.88 175.01 m
4.26 0 l
o
np
94.88 188.76 m
4.26 0 l
o
np
94.88 202.51 m
4.26 0 l
o
np
94.88 216.25 m
4.26 0 l
o
np
94.88 230.00 m
4.26 0 l
o
np
94.88 243.75 m
4.26 0 l
o
0.00 0.00 288.00 266.40 cl
0.00 0.00 288.00 266.40 cl
0.00 0.00 288.00 266.40 cl
0.00 0.00 288.00 266.40 cl
0.00 0.00 288.00 266.40 cl
0.00 0.00 288.00 266.40 cl
0 0 0 srgb
1.06 setlinewidth
[] 0 setdash
0 setlinecap
1 setlinejoin
10.00 setmiterlimit
np
107.07 38.77 m
0 4.26 l
o
np
146.72 38.77 m
0 4.26 l
o
np
186.37 38.77 m
0 4.26 l
o
np
226.02 38.77 m
0 4.26 l
o
np
265.67 38.77 m
0 4.26 l
o
0.00 0.00 288.00 266.40 cl
0.00 0.00 288.00 266.40 cl
/Font1 findfont 14 s
0 0 0 srgb
107.07 25.89 (0.00) .5 0 t
146.72 25.89 (0.25) .5 0 t
186.37 25.89 (0.50) .5 0 t
226.02 25.89 (0.75) .5 0 t
265.67 25.89 (1.00) .5 0 t
0.00 0.00 288.00 266.40 cl
0.00 0.00 288.00 266.40 cl
0.00 0.00 288.00 266.40 cl
0.00 0.00 288.00 266.40 cl
0.00 0.00 288.00 266.40 cl
/Font1 findfont 16 s
0 0 0 srgb
122.79 10.80 (Activity propor) 0 ta
0.640 (tion) tb gr
0.00 0.00 288.00 266.40 cl
0.00 0.00 288.00 266.40 cl
0.00 0.00 288.00 266.40 cl
0.00 0.00 288.00 266.40 cl
0.00 0.00 288.00 266.40 cl
0.00 0.00 288.00 266.40 cl
0.00 0.00 288.00 266.40 cl
0.00 0.00 288.00 266.40 cl
/bg { 1 1 1 srgb } def
103.66 136.11 60.73 106.40 r p2
0.00 0.00 288.00 266.40 cl
0.00 0.00 288.00 266.40 cl
/Font2 findfont 10 s
0 0 0 srgb
107.91 231.08 (c) 0 ta
-0.200 (lass) tb gr
0.00 0.00 288.00 266.40 cl
0.00 0.00 288.00 266.40 cl
/bg { 1 1 1 srgb } def
0.8000 0.8000 0.8000 srgb
1.06 setlinewidth
[] 0 setdash
1 setlinecap
1 setlinejoin
10.00 setmiterlimit
107.91 209.48 17.28 17.28 r p3
0.00 0.00 288.00 266.40 cl
0.00 0.00 288.00 266.40 cl
/bg { 0.9373 0.9529 1 srgb } def
107.91 209.48 17.28 17.28 r p2
0.00 0.00 288.00 266.40 cl
0.00 0.00 288.00 266.40 cl
/bg { 1 1 1 srgb } def
0.8000 0.8000 0.8000 srgb
1.06 setlinewidth
[] 0 setdash
1 setlinecap
1 setlinejoin
10.00 setmiterlimit
107.91 192.20 17.28 17.28 r p3
0.00 0.00 288.00 266.40 cl
0.00 0.00 288.00 266.40 cl
/bg { 0.7412 0.8431 0.9059 srgb } def
107.91 192.20 17.28 17.28 r p2
0.00 0.00 288.00 266.40 cl
0.00 0.00 288.00 266.40 cl
/bg { 1 1 1 srgb } def
0.8000 0.8000 0.8000 srgb
1.06 setlinewidth
[] 0 setdash
1 setlinecap
1 setlinejoin
10.00 setmiterlimit
107.91 174.92 17.28 17.28 r p3
0.00 0.00 288.00 266.40 cl
0.00 0.00 288.00 266.40 cl
/bg { 0.4196 0.6824 0.8392 srgb } def
107.91 174.92 17.28 17.28 r p2
0.00 0.00 288.00 266.40 cl
0.00 0.00 288.00 266.40 cl
/bg { 1 1 1 srgb } def
0.8000 0.8000 0.8000 srgb
1.06 setlinewidth
[] 0 setdash
1 setlinecap
1 setlinejoin
10.00 setmiterlimit
107.91 157.64 17.28 17.28 r p3
0.00 0.00 288.00 266.40 cl
0.00 0.00 288.00 266.40 cl
/bg { 0.1922 0.5098 0.7412 srgb } def
107.91 157.64 17.28 17.28 r p2
0.00 0.00 288.00 266.40 cl
0.00 0.00 288.00 266.40 cl
/bg { 1 1 1 srgb } def
0.8000 0.8000 0.8000 srgb
1.06 setlinewidth
[] 0 setdash
1 setlinecap
1 setlinejoin
10.00 setmiterlimit
107.91 140.36 17.28 17.28 r p3
0.00 0.00 288.00 266.40 cl
0.00 0.00 288.00 266.40 cl
/bg { 0.0314 0.3176 0.6118 srgb } def
107.91 140.36 17.28 17.28 r p2
0.00 0.00 288.00 266.40 cl
0.00 0.00 288.00 266.40 cl
/Font1 findfont 10 s
0 0 0 srgb
127.35 214.53 (tin) 0 ta
-0.150 (y) tb gr
0.00 0.00 288.00 266.40 cl
0.00 0.00 288.00 266.40 cl
/Font1 findfont 10 s
0 0 0 srgb
127.35 197.25 (small) 0 0 t
0.00 0.00 288.00 266.40 cl
0.00 0.00 288.00 266.40 cl
/Font1 findfont 10 s
0 0 0 srgb
127.35 179.97 (median) 0 0 t
0.00 0.00 288.00 266.40 cl
0.00 0.00 288.00 266.40 cl
/Font1 findfont 10 s
0 0 0 srgb
127.35 162.69 (large) 0 0 t
0.00 0.00 288.00 266.40 cl
0.00 0.00 288.00 266.40 cl
/Font1 findfont 10 s
0 0 0 srgb
127.35 145.41 (huge) 0 0 t
0.00 0.00 288.00 266.40 cl
0.00 0.00 288.00 266.40 cl
0.00 0.00 288.00 266.40 cl
0.00 0.00 288.00 266.40 cl
0.00 0.00 288.00 266.40 cl
0.00 0.00 288.00 266.40 cl
0.00 0.00 288.00 266.40 cl
0.00 0.00 288.00 266.40 cl
0.00 0.00 288.00 266.40 cl
0.00 0.00 288.00 266.40 cl
0.00 0.00 288.00 266.40 cl
0.00 0.00 288.00 266.40 cl
ep
%%Trailer
%%Pages: 1
%%EOF
