%!PS-Adobe-3.0 EPSF-3.0
%%DocumentNeededResources: font Helvetica
%%+ font Helvetica-Bold
%%+ font Helvetica-Oblique
%%+ font Helvetica-BoldOblique
%%+ font Symbol
%%Title: R Graphics Output
%%Creator: R Software
%%Pages: (atend)
%%BoundingBox: 0 0 288 360
%%EndComments
%%BeginProlog
/bp  { gs sRGB gs } def
% begin .ps.prolog
/gs  { gsave } bind def
/gr  { grestore } bind def
/ep  { showpage gr gr } bind def
/m   { moveto } bind def
/l  { rlineto } bind def
/np  { newpath } bind def
/cp  { closepath } bind def
/f   { fill } bind def
/o   { stroke } bind def
/c   { newpath 0 360 arc } bind def
/r   { 4 2 roll moveto 1 copy 3 -1 roll exch 0 exch rlineto 0 rlineto -1 mul 0 exch rlineto closepath } bind def
/p1  { stroke } bind def
/p2  { gsave bg fill grestore newpath } bind def
/p3  { gsave bg fill grestore stroke } bind def
/p6  { gsave bg eofill grestore newpath } bind def
/p7  { gsave bg eofill grestore stroke } bind def
/t   { 5 -2 roll moveto gsave rotate
       1 index stringwidth pop
       mul neg 0 rmoveto show grestore } bind def
/ta  { 4 -2 roll moveto gsave rotate show } bind def
/tb  { 2 -1 roll 0 rmoveto show } bind def
/cl  { grestore gsave newpath 3 index 3 index moveto 1 index
       4 -1 roll lineto  exch 1 index lineto lineto
       closepath clip newpath } bind def
/rgb { setrgbcolor } bind def
/s   { scalefont setfont } bind def
% end   .ps.prolog
/sRGB { [ /CIEBasedABC
          << /DecodeLMN
               [ { dup 0.03928 le
                        {12.92321 div}
                        {0.055 add 1.055 div 2.4 exp }
                     ifelse
                 } bind dup dup
               ]
             /MatrixLMN [0.412457 0.212673 0.019334
                         0.357576 0.715152 0.119192
                         0.180437 0.072175 0.950301]
             /WhitePoint [0.9505 1.0 1.0890]
           >>
         ] setcolorspace } bind def
/srgb { setcolor } bind def
%%IncludeResource: font Helvetica
/Helvetica findfont
dup length dict begin
  {1 index /FID ne {def} {pop pop} ifelse} forall
  /Encoding ISOLatin1Encoding def
  currentdict
  end
/Font1 exch definefont pop
%%IncludeResource: font Helvetica-Bold
/Helvetica-Bold findfont
dup length dict begin
  {1 index /FID ne {def} {pop pop} ifelse} forall
  /Encoding ISOLatin1Encoding def
  currentdict
  end
/Font2 exch definefont pop
%%IncludeResource: font Helvetica-Oblique
/Helvetica-Oblique findfont
dup length dict begin
  {1 index /FID ne {def} {pop pop} ifelse} forall
  /Encoding ISOLatin1Encoding def
  currentdict
  end
/Font3 exch definefont pop
%%IncludeResource: font Helvetica-BoldOblique
/Helvetica-BoldOblique findfont
dup length dict begin
  {1 index /FID ne {def} {pop pop} ifelse} forall
  /Encoding ISOLatin1Encoding def
  currentdict
  end
/Font4 exch definefont pop
%%IncludeResource: font Symbol
/Symbol findfont
dup length dict begin
  {1 index /FID ne {def} {pop pop} ifelse} forall
  currentdict
  end
/Font5 exch definefont pop
%%EndProlog
%%Page: 1 1
bp
0.00 0.00 288.00 360.00 cl
0.00 0.00 288.00 360.00 cl
0.00 0.00 288.00 360.00 cl
/bg { 1 1 1 srgb } def
1 1 1 srgb
1.06 setlinewidth
[] 0 setdash
1 setlinecap
1 setlinejoin
10.00 setmiterlimit
0.00 -0.00 288.00 360.00 r p3
0.00 0.00 288.00 360.00 cl
0.00 0.00 288.00 360.00 cl
0.00 0.00 288.00 360.00 cl
88.36 32.24 282.33 354.33 cl
/bg { 1 1 1 srgb } def
88.36 32.24 193.97 322.09 r p2
0.9804 0.9804 0.9804 srgb
1.06 setlinewidth
[] 0 setdash
0 setlinecap
1 setlinejoin
10.00 setmiterlimit
np
119.22 32.24 m
0 322.09 l
o
np
163.31 32.24 m
0 322.09 l
o
np
207.39 32.24 m
0 322.09 l
o
np
251.47 32.24 m
0 322.09 l
o
0.8980 0.8980 0.8980 srgb
0.43 setlinewidth
[] 0 setdash
np
88.36 44.95 m
193.97 0 l
o
np
88.36 66.14 m
193.97 0 l
o
np
88.36 87.33 m
193.97 0 l
o
np
88.36 108.52 m
193.97 0 l
o
np
88.36 129.71 m
193.97 0 l
o
np
88.36 150.90 m
193.97 0 l
o
np
88.36 172.09 m
193.97 0 l
o
np
88.36 193.28 m
193.97 0 l
o
np
88.36 214.47 m
193.97 0 l
o
np
88.36 235.66 m
193.97 0 l
o
np
88.36 256.85 m
193.97 0 l
o
np
88.36 278.05 m
193.97 0 l
o
np
88.36 299.24 m
193.97 0 l
o
np
88.36 320.43 m
193.97 0 l
o
np
88.36 341.62 m
193.97 0 l
o
np
97.18 32.24 m
0 322.09 l
o
np
141.26 32.24 m
0 322.09 l
o
np
185.35 32.24 m
0 322.09 l
o
np
229.43 32.24 m
0 322.09 l
o
np
273.51 32.24 m
0 322.09 l
o
/bg { 0.9725 0.4627 0.4275 srgb } def
97.18 38.59 24.07 6.36 r p2
/bg { 0 0.7490 0.7686 srgb } def
97.18 44.95 77.08 6.36 r p2
/bg { 0.9725 0.4627 0.4275 srgb } def
97.18 59.78 34.23 6.36 r p2
/bg { 0 0.7490 0.7686 srgb } def
97.18 66.14 78.22 6.36 r p2
/bg { 0.9725 0.4627 0.4275 srgb } def
97.18 80.97 35.85 6.36 r p2
/bg { 0 0.7490 0.7686 srgb } def
97.18 87.33 82.59 6.36 r p2
/bg { 0.9725 0.4627 0.4275 srgb } def
97.18 102.16 36.57 6.36 r p2
/bg { 0 0.7490 0.7686 srgb } def
97.18 108.52 77.21 6.36 r p2
/bg { 0.9725 0.4627 0.4275 srgb } def
97.18 123.36 37.27 6.36 r p2
/bg { 0 0.7490 0.7686 srgb } def
97.18 129.71 109.84 6.36 r p2
/bg { 0.9725 0.4627 0.4275 srgb } def
97.18 144.55 38.28 6.36 r p2
/bg { 0 0.7490 0.7686 srgb } def
97.18 150.90 111.66 6.36 r p2
/bg { 0.9725 0.4627 0.4275 srgb } def
97.18 165.74 39.05 6.36 r p2
/bg { 0 0.7490 0.7686 srgb } def
97.18 172.09 96.75 6.36 r p2
/bg { 0.9725 0.4627 0.4275 srgb } def
97.18 186.93 40.09 6.36 r p2
/bg { 0 0.7490 0.7686 srgb } def
97.18 193.28 72.39 6.36 r p2
/bg { 0.9725 0.4627 0.4275 srgb } def
97.18 208.12 42.55 6.36 r p2
/bg { 0 0.7490 0.7686 srgb } def
97.18 214.47 125.19 6.36 r p2
/bg { 0.9725 0.4627 0.4275 srgb } def
97.18 229.31 45.07 6.36 r p2
/bg { 0 0.7490 0.7686 srgb } def
97.18 235.66 77.50 6.36 r p2
/bg { 0.9725 0.4627 0.4275 srgb } def
97.18 250.50 48.65 6.36 r p2
/bg { 0 0.7490 0.7686 srgb } def
97.18 256.85 122.02 6.36 r p2
/bg { 0.9725 0.4627 0.4275 srgb } def
97.18 271.69 51.28 6.36 r p2
/bg { 0 0.7490 0.7686 srgb } def
97.18 278.05 82.82 6.36 r p2
/bg { 0.9725 0.4627 0.4275 srgb } def
97.18 292.88 51.55 6.36 r p2
/bg { 0 0.7490 0.7686 srgb } def
97.18 299.24 151.68 6.36 r p2
/bg { 0.9725 0.4627 0.4275 srgb } def
97.18 314.07 62.67 6.36 r p2
/bg { 0 0.7490 0.7686 srgb } def
97.18 320.43 144.16 6.36 r p2
/bg { 0.9725 0.4627 0.4275 srgb } def
97.18 335.26 64.82 6.36 r p2
/bg { 0 0.7490 0.7686 srgb } def
97.18 341.62 125.99 6.36 r p2
0.4980 0.4980 0.4980 srgb
1.06 setlinewidth
[] 0 setdash
1 setlinecap
88.36 32.24 193.97 322.09 r p1
0.00 0.00 288.00 360.00 cl
0.00 0.00 288.00 360.00 cl
0.00 0.00 288.00 360.00 cl
/Font1 findfont 15 s
0 0 0 srgb
81.28 39.57 (IM) 1 0 t
81.28 60.76 (Shopping) 1 0 t
81.28 81.95 (Email) 1 0 t
81.28 103.14 (Games) 1 0 t
57.10 124.33 (Lif) 0 ta
-0.450 (e) tb gr
81.28 145.52 (SN) 1 0 t
43.78 166.71 (Ne) 0 ta
-0.300 (ws) tb gr
7.09 187.90 (Do) 0 ta
-0.225 (wnloads) tb gr
81.28 209.09 (Education) 1 0 t
81.28 230.28 (Reading) 1 0 t
81.28 251.47 (Search) 1 0 t
81.28 272.66 (Leisure) 1 0 t
16.27 293.85 (Microb) 0 ta
-0.300 (log) tb gr
81.28 315.04 (Music) 1 0 t
81.28 336.23 (Video) 1 0 t
0.00 0.00 288.00 360.00 cl
0.00 0.00 288.00 360.00 cl
0 0 0 srgb
1.06 setlinewidth
[] 0 setdash
0 setlinecap
1 setlinejoin
10.00 setmiterlimit
np
84.11 44.95 m
4.25 0 l
o
np
84.11 66.14 m
4.25 0 l
o
np
84.11 87.33 m
4.25 0 l
o
np
84.11 108.52 m
4.25 0 l
o
np
84.11 129.71 m
4.25 0 l
o
np
84.11 150.90 m
4.25 0 l
o
np
84.11 172.09 m
4.25 0 l
o
np
84.11 193.28 m
4.25 0 l
o
np
84.11 214.47 m
4.25 0 l
o
np
84.11 235.66 m
4.25 0 l
o
np
84.11 256.85 m
4.25 0 l
o
np
84.11 278.05 m
4.25 0 l
o
np
84.11 299.24 m
4.25 0 l
o
np
84.11 320.43 m
4.25 0 l
o
np
84.11 341.62 m
4.25 0 l
o
0.00 0.00 288.00 360.00 cl
0.00 0.00 288.00 360.00 cl
0.00 0.00 288.00 360.00 cl
0.00 0.00 288.00 360.00 cl
0.00 0.00 288.00 360.00 cl
0.00 0.00 288.00 360.00 cl
0 0 0 srgb
1.06 setlinewidth
[] 0 setdash
0 setlinecap
1 setlinejoin
10.00 setmiterlimit
np
97.18 27.98 m
0 4.26 l
o
np
141.26 27.98 m
0 4.26 l
o
np
185.35 27.98 m
0 4.26 l
o
np
229.43 27.98 m
0 4.26 l
o
np
273.51 27.98 m
0 4.26 l
o
0.00 0.00 288.00 360.00 cl
0.00 0.00 288.00 360.00 cl
/Font1 findfont 10 s
0 0 0 srgb
97.18 17.97 (0) .5 0 t
141.26 17.97 (25) .5 0 t
185.35 17.97 (50) .5 0 t
229.43 17.97 (75) .5 0 t
273.51 17.97 (100) .5 0 t
0.00 0.00 288.00 360.00 cl
0.00 0.00 288.00 360.00 cl
0.00 0.00 288.00 360.00 cl
0.00 0.00 288.00 360.00 cl
0.00 0.00 288.00 360.00 cl
/Font1 findfont 15 s
0 0 0 srgb
117.82 3.60 (Eng. dur) 0 ta
-0.150 (ation \(mins\)) tb gr
0.00 0.00 288.00 360.00 cl
0.00 0.00 288.00 360.00 cl
0.00 0.00 288.00 360.00 cl
0.00 0.00 288.00 360.00 cl
0.00 0.00 288.00 360.00 cl
0.00 0.00 288.00 360.00 cl
ep
%%Trailer
%%Pages: 1
%%EOF
