%!PS-Adobe-3.0
%%DocumentNeededResources: font Helvetica
%%+ font Helvetica-Bold
%%+ font Helvetica-Oblique
%%+ font Helvetica-BoldOblique
%%+ font Symbol
%%DocumentMedia: a4 595 841 0 () ()
%%Title: R Graphics Output
%%Creator: R Software
%%Pages: (atend)
%%Orientation: Landscape
%%BoundingBox: 82 133 514 709
%%EndComments
%%BeginProlog
/bp  { gs sRGB 595.00 0 translate 90 rotate gs } def
% begin .ps.prolog
/gs  { gsave } bind def
/gr  { grestore } bind def
/ep  { showpage gr gr } bind def
/m   { moveto } bind def
/l  { rlineto } bind def
/np  { newpath } bind def
/cp  { closepath } bind def
/f   { fill } bind def
/o   { stroke } bind def
/c   { newpath 0 360 arc } bind def
/r   { 4 2 roll moveto 1 copy 3 -1 roll exch 0 exch rlineto 0 rlineto -1 mul 0 exch rlineto closepath } bind def
/p1  { stroke } bind def
/p2  { gsave bg fill grestore newpath } bind def
/p3  { gsave bg fill grestore stroke } bind def
/p6  { gsave bg eofill grestore newpath } bind def
/p7  { gsave bg eofill grestore stroke } bind def
/t   { 5 -2 roll moveto gsave rotate
       1 index stringwidth pop
       mul neg 0 rmoveto show grestore } bind def
/ta  { 4 -2 roll moveto gsave rotate show } bind def
/tb  { 2 -1 roll 0 rmoveto show } bind def
/cl  { grestore gsave newpath 3 index 3 index moveto 1 index
       4 -1 roll lineto  exch 1 index lineto lineto
       closepath clip newpath } bind def
/rgb { setrgbcolor } bind def
/s   { scalefont setfont } bind def
% end   .ps.prolog
/sRGB { [ /CIEBasedABC
          << /DecodeLMN
               [ { dup 0.03928 le
                        {12.92321 div}
                        {0.055 add 1.055 div 2.4 exp }
                     ifelse
                 } bind dup dup
               ]
             /MatrixLMN [0.412457 0.212673 0.019334
                         0.357576 0.715152 0.119192
                         0.180437 0.072175 0.950301]
             /WhitePoint [0.9505 1.0 1.0890]
           >>
         ] setcolorspace } bind def
/srgb { setcolor } bind def
%%IncludeResource: font Helvetica
/Helvetica findfont
dup length dict begin
  {1 index /FID ne {def} {pop pop} ifelse} forall
  /Encoding ISOLatin1Encoding def
  currentdict
  end
/Font1 exch definefont pop
%%IncludeResource: font Helvetica-Bold
/Helvetica-Bold findfont
dup length dict begin
  {1 index /FID ne {def} {pop pop} ifelse} forall
  /Encoding ISOLatin1Encoding def
  currentdict
  end
/Font2 exch definefont pop
%%IncludeResource: font Helvetica-Oblique
/Helvetica-Oblique findfont
dup length dict begin
  {1 index /FID ne {def} {pop pop} ifelse} forall
  /Encoding ISOLatin1Encoding def
  currentdict
  end
/Font3 exch definefont pop
%%IncludeResource: font Helvetica-BoldOblique
/Helvetica-BoldOblique findfont
dup length dict begin
  {1 index /FID ne {def} {pop pop} ifelse} forall
  /Encoding ISOLatin1Encoding def
  currentdict
  end
/Font4 exch definefont pop
%%IncludeResource: font Symbol
/Symbol findfont
dup length dict begin
  {1 index /FID ne {def} {pop pop} ifelse} forall
  currentdict
  end
/Font5 exch definefont pop
%%EndProlog
%%Page: 1 1
bp
204.94 153.64 694.54 499.24 cl
0 0 0 srgb
0.75 setlinewidth
[] 0 setdash
1 setlinecap
1 setlinejoin
10.00 setmiterlimit
np
260.90 166.45 m
0.75 0 l
0.76 0.01 l
0.75 0 l
0.76 0 l
0.75 0 l
0.75 0.01 l
0.76 0 l
0.75 0.01 l
0.76 0 l
0.75 0.01 l
0.75 0 l
0.76 0.01 l
0.75 0.01 l
0.76 0.01 l
0.75 0.01 l
0.75 0.01 l
0.76 0.01 l
0.75 0.01 l
0.76 0.01 l
0.75 0.02 l
0.75 0.01 l
0.76 0.02 l
0.75 0.02 l
0.76 0.02 l
0.75 0.02 l
0.76 0.02 l
0.75 0.02 l
0.75 0.03 l
0.76 0.02 l
0.75 0.03 l
0.76 0.03 l
0.75 0.03 l
0.75 0.03 l
0.76 0.03 l
0.75 0.04 l
0.76 0.03 l
0.75 0.04 l
0.75 0.04 l
0.76 0.03 l
0.75 0.04 l
0.76 0.04 l
0.75 0.04 l
0.75 0.04 l
0.76 0.04 l
0.75 0.04 l
0.76 0.04 l
0.75 0.03 l
0.75 0.04 l
0.76 0.04 l
0.75 0.03 l
0.76 0.04 l
0.75 0.03 l
0.75 0.03 l
0.76 0.03 l
0.75 0.03 l
0.76 0.02 l
0.75 0.03 l
0.76 0.02 l
0.75 0.01 l
0.75 0.02 l
0.76 0.01 l
0.75 0.01 l
0.76 0 l
0.75 0.01 l
0.75 0 l
0.76 -0.01 l
0.75 0 l
0.76 -0.01 l
0.75 -0.01 l
0.75 -0.02 l
0.76 -0.02 l
0.75 -0.02 l
0.76 -0.02 l
0.75 -0.03 l
0.75 -0.02 l
0.76 -0.03 l
0.75 -0.03 l
0.76 -0.04 l
0.75 -0.03 l
0.75 -0.04 l
0.76 -0.03 l
0.75 -0.04 l
0.76 -0.04 l
0.75 -0.04 l
0.75 -0.04 l
0.76 -0.04 l
0.75 -0.04 l
0.76 -0.04 l
0.75 -0.03 l
0.76 -0.04 l
0.75 -0.04 l
0.75 -0.04 l
0.76 -0.03 l
0.75 -0.04 l
0.76 -0.03 l
0.75 -0.03 l
0.75 -0.03 l
0.76 -0.03 l
0.75 -0.03 l
336.31 166.77 lineto
0.75 -0.02 l
0.75 -0.03 l
0.76 -0.02 l
0.75 -0.02 l
0.76 -0.02 l
0.75 -0.02 l
0.75 -0.01 l
0.76 -0.02 l
0.75 -0.01 l
0.76 -0.01 l
0.75 -0.01 l
0.75 -0.01 l
0.76 -0.01 l
0.75 0 l
0.76 -0.01 l
0.75 0 l
0.75 0 l
0.76 0.01 l
0.75 0 l
0.76 0.01 l
0.75 0.01 l
0.76 0.01 l
0.75 0.02 l
0.75 0.02 l
0.76 0.02 l
0.75 0.03 l
0.76 0.03 l
0.75 0.04 l
0.75 0.04 l
0.76 0.05 l
0.75 0.05 l
0.76 0.07 l
0.75 0.07 l
0.75 0.08 l
0.76 0.09 l
0.75 0.11 l
0.76 0.12 l
0.75 0.13 l
0.75 0.14 l
0.76 0.16 l
0.75 0.18 l
0.76 0.20 l
0.75 0.22 l
0.75 0.24 l
0.76 0.27 l
0.75 0.29 l
0.76 0.31 l
0.75 0.35 l
0.75 0.38 l
0.76 0.41 l
0.75 0.44 l
0.76 0.48 l
0.75 0.52 l
0.76 0.56 l
0.75 0.59 l
0.75 0.65 l
0.76 0.68 l
0.75 0.73 l
0.76 0.77 l
0.75 0.83 l
0.75 0.87 l
0.76 0.91 l
0.75 0.96 l
0.76 1.03 l
0.75 1.06 l
0.75 1.11 l
0.76 1.16 l
0.75 1.21 l
0.76 1.25 l
0.75 1.29 l
0.75 1.33 l
0.76 1.38 l
0.75 1.41 l
0.76 1.44 l
0.75 1.46 l
0.75 1.50 l
0.76 1.52 l
0.75 1.54 l
0.76 1.54 l
0.75 1.56 l
0.75 1.56 l
0.76 1.55 l
0.75 1.55 l
0.76 1.54 l
0.75 1.51 l
0.76 1.50 l
0.75 1.47 l
0.75 1.42 l
0.76 1.38 l
0.75 1.35 l
0.76 1.30 l
0.75 1.23 l
0.75 1.17 l
0.76 1.11 l
0.75 1.06 l
0.76 0.96 l
0.75 0.89 l
0.75 0.82 l
0.76 0.76 l
411.71 227.27 lineto
0.76 0.57 l
0.75 0.50 l
0.75 0.42 l
0.76 0.32 l
0.75 0.23 l
0.76 0.17 l
0.75 0.10 l
0.75 -0.01 l
0.76 -0.07 l
0.75 -0.14 l
0.76 -0.20 l
0.75 -0.28 l
0.75 -0.34 l
0.76 -0.39 l
0.75 -0.45 l
0.76 -0.50 l
0.75 -0.54 l
0.76 -0.58 l
0.75 -0.61 l
0.75 -0.65 l
0.76 -0.67 l
0.75 -0.69 l
0.76 -0.70 l
0.75 -0.73 l
0.75 -0.72 l
0.76 -0.73 l
0.75 -0.73 l
0.76 -0.73 l
0.75 -0.72 l
0.75 -0.71 l
0.76 -0.70 l
0.75 -0.68 l
0.76 -0.66 l
0.75 -0.64 l
0.75 -0.62 l
0.76 -0.60 l
0.75 -0.56 l
0.76 -0.55 l
0.75 -0.51 l
0.75 -0.49 l
0.76 -0.45 l
0.75 -0.42 l
0.76 -0.40 l
0.75 -0.36 l
0.76 -0.33 l
0.75 -0.30 l
0.75 -0.27 l
0.76 -0.24 l
0.75 -0.20 l
0.76 -0.18 l
0.75 -0.15 l
0.75 -0.11 l
0.76 -0.08 l
0.75 -0.06 l
0.76 -0.03 l
0.75 0 l
0.75 0.03 l
0.76 0.05 l
0.75 0.08 l
0.76 0.10 l
0.75 0.13 l
0.75 0.16 l
0.76 0.17 l
0.75 0.20 l
0.76 0.23 l
0.75 0.24 l
0.75 0.26 l
0.76 0.28 l
0.75 0.30 l
0.76 0.32 l
0.75 0.33 l
0.75 0.34 l
0.76 0.36 l
0.75 0.38 l
0.76 0.38 l
0.75 0.38 l
0.76 0.40 l
0.75 0.40 l
0.75 0.41 l
0.76 0.40 l
0.75 0.41 l
0.76 0.40 l
0.75 0.39 l
0.75 0.39 l
0.76 0.38 l
0.75 0.36 l
0.76 0.35 l
0.75 0.34 l
0.75 0.30 l
0.76 0.29 l
0.75 0.26 l
0.76 0.24 l
0.75 0.20 l
0.75 0.16 l
0.76 0.14 l
0.75 0.10 l
0.76 0.04 l
0.75 0.01 l
0.75 -0.03 l
487.12 219.08 lineto
0.75 -0.14 l
0.76 -0.18 l
0.75 -0.23 l
0.75 -0.27 l
0.76 -0.35 l
0.75 -0.38 l
0.76 -0.44 l
0.75 -0.48 l
0.76 -0.55 l
0.75 -0.59 l
0.75 -0.64 l
0.76 -0.68 l
0.75 -0.74 l
0.76 -0.78 l
0.75 -0.81 l
0.75 -0.85 l
0.76 -0.90 l
0.75 -0.93 l
0.76 -0.95 l
0.75 -0.97 l
0.75 -1.01 l
0.76 -1.02 l
0.75 -1.04 l
0.76 -1.05 l
0.75 -1.06 l
0.75 -1.06 l
0.76 -1.07 l
0.75 -1.06 l
0.76 -1.06 l
0.75 -1.05 l
0.75 -1.04 l
0.76 -1.03 l
0.75 -1.01 l
0.76 -0.99 l
0.75 -0.98 l
0.75 -0.95 l
0.76 -0.92 l
0.75 -0.90 l
0.76 -0.87 l
0.75 -0.85 l
0.76 -0.82 l
0.75 -0.78 l
0.75 -0.76 l
0.76 -0.74 l
0.75 -0.70 l
0.76 -0.67 l
0.75 -0.65 l
0.75 -0.62 l
0.76 -0.59 l
0.75 -0.57 l
0.76 -0.54 l
0.75 -0.53 l
0.75 -0.49 l
0.76 -0.48 l
0.75 -0.46 l
0.76 -0.44 l
0.75 -0.42 l
0.75 -0.41 l
0.76 -0.39 l
0.75 -0.38 l
0.76 -0.36 l
0.75 -0.36 l
0.75 -0.34 l
0.76 -0.33 l
0.75 -0.33 l
0.76 -0.31 l
0.75 -0.30 l
0.75 -0.30 l
0.76 -0.29 l
0.75 -0.28 l
0.76 -0.27 l
0.75 -0.27 l
0.76 -0.26 l
0.75 -0.25 l
0.75 -0.25 l
0.76 -0.24 l
0.75 -0.23 l
0.76 -0.22 l
0.75 -0.21 l
0.75 -0.21 l
0.76 -0.20 l
0.75 -0.18 l
0.76 -0.18 l
0.75 -0.17 l
0.75 -0.16 l
0.76 -0.15 l
0.75 -0.14 l
0.76 -0.13 l
0.75 -0.11 l
0.75 -0.10 l
0.76 -0.10 l
0.75 -0.08 l
0.76 -0.06 l
0.75 -0.06 l
0.75 -0.04 l
0.76 -0.02 l
0.75 -0.01 l
0.76 0 l
0.75 0.02 l
562.52 168.31 lineto
0.76 0.05 l
0.75 0.06 l
0.76 0.08 l
0.75 0.09 l
0.76 0.12 l
0.75 0.13 l
0.75 0.14 l
0.76 0.16 l
0.75 0.18 l
0.76 0.19 l
0.75 0.21 l
0.75 0.22 l
0.76 0.24 l
0.75 0.26 l
0.76 0.27 l
0.75 0.29 l
0.75 0.29 l
0.76 0.32 l
0.75 0.32 l
0.76 0.33 l
0.75 0.34 l
0.75 0.35 l
0.76 0.36 l
0.75 0.36 l
0.76 0.37 l
0.75 0.37 l
0.75 0.37 l
0.76 0.36 l
0.75 0.37 l
0.76 0.36 l
0.75 0.35 l
0.75 0.35 l
0.76 0.33 l
0.75 0.32 l
0.76 0.30 l
0.75 0.29 l
0.76 0.27 l
0.75 0.25 l
0.75 0.23 l
0.76 0.21 l
0.75 0.18 l
0.76 0.15 l
0.75 0.13 l
0.75 0.10 l
0.76 0.08 l
0.75 0.04 l
0.76 0.01 l
0.75 -0.01 l
0.75 -0.04 l
0.76 -0.07 l
0.75 -0.10 l
0.76 -0.13 l
0.75 -0.15 l
0.75 -0.18 l
0.76 -0.21 l
0.75 -0.23 l
0.76 -0.24 l
0.75 -0.28 l
0.75 -0.28 l
0.76 -0.31 l
0.75 -0.32 l
0.76 -0.33 l
0.75 -0.35 l
0.75 -0.35 l
0.76 -0.36 l
0.75 -0.37 l
0.76 -0.37 l
0.75 -0.38 l
0.76 -0.37 l
0.75 -0.37 l
0.75 -0.37 l
0.76 -0.37 l
0.75 -0.36 l
0.76 -0.35 l
0.75 -0.34 l
0.75 -0.34 l
0.76 -0.33 l
0.75 -0.31 l
0.76 -0.30 l
0.75 -0.29 l
0.75 -0.28 l
0.76 -0.27 l
0.75 -0.25 l
0.76 -0.24 l
0.75 -0.23 l
0.75 -0.21 l
0.76 -0.20 l
0.75 -0.19 l
0.76 -0.18 l
0.75 -0.16 l
0.75 -0.15 l
0.76 -0.15 l
0.75 -0.13 l
0.76 -0.12 l
0.75 -0.11 l
0.75 -0.10 l
0.76 -0.10 l
0.75 -0.08 l
0.76 -0.08 l
637.93 167.00 lineto
0.76 -0.06 l
0.75 -0.06 l
0.75 -0.05 l
0.76 -0.05 l
0.75 -0.04 l
0.76 -0.04 l
0.75 -0.03 l
0.75 -0.03 l
0.76 -0.03 l
0.75 -0.02 l
0.76 -0.02 l
o
132.94 81.64 708.94 513.64 cl
0 0 0 srgb
0.75 setlinewidth
[] 0 setdash
1 setlinecap
1 setlinejoin
10.00 setmiterlimit
np
204.94 153.64 m
489.60 0 l
0 345.60 l
-489.60 0 l
0 -345.60 l
o
132.94 81.64 708.94 513.64 cl
204.94 153.64 694.54 499.24 cl
0.7451 0.7451 0.7451 srgb
0.08 setlinewidth
[] 0 setdash
1 setlinecap
1 setlinejoin
10.00 setmiterlimit
np
204.94 166.44 m
489.60 0 l
o
0 0 0 srgb
0.75 setlinewidth
[] 0 setdash
np
260.90 166.45 m
0.75 0 l
0.76 0.01 l
0.75 0 l
0.76 0 l
0.75 0 l
0.75 0.01 l
0.76 0 l
0.75 0.01 l
0.76 0 l
0.75 0.01 l
0.75 0 l
0.76 0.01 l
0.75 0.01 l
0.76 0.01 l
0.75 0.01 l
0.75 0.01 l
0.76 0.01 l
0.75 0.01 l
0.76 0.01 l
0.75 0.02 l
0.75 0.01 l
0.76 0.02 l
0.75 0.02 l
0.76 0.02 l
0.75 0.02 l
0.76 0.02 l
0.75 0.02 l
0.75 0.03 l
0.76 0.02 l
0.75 0.03 l
0.76 0.03 l
0.75 0.03 l
0.75 0.03 l
0.76 0.03 l
0.75 0.04 l
0.76 0.03 l
0.75 0.04 l
0.75 0.04 l
0.76 0.03 l
0.75 0.04 l
0.76 0.04 l
0.75 0.04 l
0.75 0.04 l
0.76 0.04 l
0.75 0.04 l
0.76 0.04 l
0.75 0.03 l
0.75 0.04 l
0.76 0.04 l
0.75 0.03 l
0.76 0.04 l
0.75 0.03 l
0.75 0.03 l
0.76 0.03 l
0.75 0.03 l
0.76 0.02 l
0.75 0.03 l
0.76 0.02 l
0.75 0.01 l
0.75 0.02 l
0.76 0.01 l
0.75 0.01 l
0.76 0 l
0.75 0.01 l
0.75 0 l
0.76 -0.01 l
0.75 0 l
0.76 -0.01 l
0.75 -0.01 l
0.75 -0.02 l
0.76 -0.02 l
0.75 -0.02 l
0.76 -0.02 l
0.75 -0.03 l
0.75 -0.02 l
0.76 -0.03 l
0.75 -0.03 l
0.76 -0.04 l
0.75 -0.03 l
0.75 -0.04 l
0.76 -0.03 l
0.75 -0.04 l
0.76 -0.04 l
0.75 -0.04 l
0.75 -0.04 l
0.76 -0.04 l
0.75 -0.04 l
0.76 -0.04 l
0.75 -0.03 l
0.76 -0.04 l
0.75 -0.04 l
0.75 -0.04 l
0.76 -0.03 l
0.75 -0.04 l
0.76 -0.03 l
0.75 -0.03 l
0.75 -0.03 l
0.76 -0.03 l
0.75 -0.03 l
336.31 166.77 lineto
0.75 -0.02 l
0.75 -0.03 l
0.76 -0.02 l
0.75 -0.02 l
0.76 -0.02 l
0.75 -0.02 l
0.75 -0.01 l
0.76 -0.02 l
0.75 -0.01 l
0.76 -0.01 l
0.75 -0.01 l
0.75 -0.01 l
0.76 -0.01 l
0.75 0 l
0.76 -0.01 l
0.75 0 l
0.75 0 l
0.76 0.01 l
0.75 0 l
0.76 0.01 l
0.75 0.01 l
0.76 0.01 l
0.75 0.02 l
0.75 0.02 l
0.76 0.02 l
0.75 0.03 l
0.76 0.03 l
0.75 0.04 l
0.75 0.04 l
0.76 0.05 l
0.75 0.05 l
0.76 0.07 l
0.75 0.07 l
0.75 0.08 l
0.76 0.09 l
0.75 0.11 l
0.76 0.12 l
0.75 0.13 l
0.75 0.14 l
0.76 0.16 l
0.75 0.18 l
0.76 0.20 l
0.75 0.22 l
0.75 0.24 l
0.76 0.27 l
0.75 0.29 l
0.76 0.31 l
0.75 0.35 l
0.75 0.38 l
0.76 0.41 l
0.75 0.44 l
0.76 0.48 l
0.75 0.52 l
0.76 0.56 l
0.75 0.59 l
0.75 0.65 l
0.76 0.68 l
0.75 0.73 l
0.76 0.77 l
0.75 0.83 l
0.75 0.87 l
0.76 0.91 l
0.75 0.96 l
0.76 1.03 l
0.75 1.06 l
0.75 1.11 l
0.76 1.16 l
0.75 1.21 l
0.76 1.25 l
0.75 1.29 l
0.75 1.33 l
0.76 1.38 l
0.75 1.41 l
0.76 1.44 l
0.75 1.46 l
0.75 1.50 l
0.76 1.52 l
0.75 1.54 l
0.76 1.54 l
0.75 1.56 l
0.75 1.56 l
0.76 1.55 l
0.75 1.55 l
0.76 1.54 l
0.75 1.51 l
0.76 1.50 l
0.75 1.47 l
0.75 1.42 l
0.76 1.38 l
0.75 1.35 l
0.76 1.30 l
0.75 1.23 l
0.75 1.17 l
0.76 1.11 l
0.75 1.06 l
0.76 0.96 l
0.75 0.89 l
0.75 0.82 l
0.76 0.76 l
411.71 227.27 lineto
0.76 0.57 l
0.75 0.50 l
0.75 0.42 l
0.76 0.32 l
0.75 0.23 l
0.76 0.17 l
0.75 0.10 l
0.75 -0.01 l
0.76 -0.07 l
0.75 -0.14 l
0.76 -0.20 l
0.75 -0.28 l
0.75 -0.34 l
0.76 -0.39 l
0.75 -0.45 l
0.76 -0.50 l
0.75 -0.54 l
0.76 -0.58 l
0.75 -0.61 l
0.75 -0.65 l
0.76 -0.67 l
0.75 -0.69 l
0.76 -0.70 l
0.75 -0.73 l
0.75 -0.72 l
0.76 -0.73 l
0.75 -0.73 l
0.76 -0.73 l
0.75 -0.72 l
0.75 -0.71 l
0.76 -0.70 l
0.75 -0.68 l
0.76 -0.66 l
0.75 -0.64 l
0.75 -0.62 l
0.76 -0.60 l
0.75 -0.56 l
0.76 -0.55 l
0.75 -0.51 l
0.75 -0.49 l
0.76 -0.45 l
0.75 -0.42 l
0.76 -0.40 l
0.75 -0.36 l
0.76 -0.33 l
0.75 -0.30 l
0.75 -0.27 l
0.76 -0.24 l
0.75 -0.20 l
0.76 -0.18 l
0.75 -0.15 l
0.75 -0.11 l
0.76 -0.08 l
0.75 -0.06 l
0.76 -0.03 l
0.75 0 l
0.75 0.03 l
0.76 0.05 l
0.75 0.08 l
0.76 0.10 l
0.75 0.13 l
0.75 0.16 l
0.76 0.17 l
0.75 0.20 l
0.76 0.23 l
0.75 0.24 l
0.75 0.26 l
0.76 0.28 l
0.75 0.30 l
0.76 0.32 l
0.75 0.33 l
0.75 0.34 l
0.76 0.36 l
0.75 0.38 l
0.76 0.38 l
0.75 0.38 l
0.76 0.40 l
0.75 0.40 l
0.75 0.41 l
0.76 0.40 l
0.75 0.41 l
0.76 0.40 l
0.75 0.39 l
0.75 0.39 l
0.76 0.38 l
0.75 0.36 l
0.76 0.35 l
0.75 0.34 l
0.75 0.30 l
0.76 0.29 l
0.75 0.26 l
0.76 0.24 l
0.75 0.20 l
0.75 0.16 l
0.76 0.14 l
0.75 0.10 l
0.76 0.04 l
0.75 0.01 l
0.75 -0.03 l
487.12 219.08 lineto
0.75 -0.14 l
0.76 -0.18 l
0.75 -0.23 l
0.75 -0.27 l
0.76 -0.35 l
0.75 -0.38 l
0.76 -0.44 l
0.75 -0.48 l
0.76 -0.55 l
0.75 -0.59 l
0.75 -0.64 l
0.76 -0.68 l
0.75 -0.74 l
0.76 -0.78 l
0.75 -0.81 l
0.75 -0.85 l
0.76 -0.90 l
0.75 -0.93 l
0.76 -0.95 l
0.75 -0.97 l
0.75 -1.01 l
0.76 -1.02 l
0.75 -1.04 l
0.76 -1.05 l
0.75 -1.06 l
0.75 -1.06 l
0.76 -1.07 l
0.75 -1.06 l
0.76 -1.06 l
0.75 -1.05 l
0.75 -1.04 l
0.76 -1.03 l
0.75 -1.01 l
0.76 -0.99 l
0.75 -0.98 l
0.75 -0.95 l
0.76 -0.92 l
0.75 -0.90 l
0.76 -0.87 l
0.75 -0.85 l
0.76 -0.82 l
0.75 -0.78 l
0.75 -0.76 l
0.76 -0.74 l
0.75 -0.70 l
0.76 -0.67 l
0.75 -0.65 l
0.75 -0.62 l
0.76 -0.59 l
0.75 -0.57 l
0.76 -0.54 l
0.75 -0.53 l
0.75 -0.49 l
0.76 -0.48 l
0.75 -0.46 l
0.76 -0.44 l
0.75 -0.42 l
0.75 -0.41 l
0.76 -0.39 l
0.75 -0.38 l
0.76 -0.36 l
0.75 -0.36 l
0.75 -0.34 l
0.76 -0.33 l
0.75 -0.33 l
0.76 -0.31 l
0.75 -0.30 l
0.75 -0.30 l
0.76 -0.29 l
0.75 -0.28 l
0.76 -0.27 l
0.75 -0.27 l
0.76 -0.26 l
0.75 -0.25 l
0.75 -0.25 l
0.76 -0.24 l
0.75 -0.23 l
0.76 -0.22 l
0.75 -0.21 l
0.75 -0.21 l
0.76 -0.20 l
0.75 -0.18 l
0.76 -0.18 l
0.75 -0.17 l
0.75 -0.16 l
0.76 -0.15 l
0.75 -0.14 l
0.76 -0.13 l
0.75 -0.11 l
0.75 -0.10 l
0.76 -0.10 l
0.75 -0.08 l
0.76 -0.06 l
0.75 -0.06 l
0.75 -0.04 l
0.76 -0.02 l
0.75 -0.01 l
0.76 0 l
0.75 0.02 l
562.52 168.31 lineto
0.76 0.05 l
0.75 0.06 l
0.76 0.08 l
0.75 0.09 l
0.76 0.12 l
0.75 0.13 l
0.75 0.14 l
0.76 0.16 l
0.75 0.18 l
0.76 0.19 l
0.75 0.21 l
0.75 0.22 l
0.76 0.24 l
0.75 0.26 l
0.76 0.27 l
0.75 0.29 l
0.75 0.29 l
0.76 0.32 l
0.75 0.32 l
0.76 0.33 l
0.75 0.34 l
0.75 0.35 l
0.76 0.36 l
0.75 0.36 l
0.76 0.37 l
0.75 0.37 l
0.75 0.37 l
0.76 0.36 l
0.75 0.37 l
0.76 0.36 l
0.75 0.35 l
0.75 0.35 l
0.76 0.33 l
0.75 0.32 l
0.76 0.30 l
0.75 0.29 l
0.76 0.27 l
0.75 0.25 l
0.75 0.23 l
0.76 0.21 l
0.75 0.18 l
0.76 0.15 l
0.75 0.13 l
0.75 0.10 l
0.76 0.08 l
0.75 0.04 l
0.76 0.01 l
0.75 -0.01 l
0.75 -0.04 l
0.76 -0.07 l
0.75 -0.10 l
0.76 -0.13 l
0.75 -0.15 l
0.75 -0.18 l
0.76 -0.21 l
0.75 -0.23 l
0.76 -0.24 l
0.75 -0.28 l
0.75 -0.28 l
0.76 -0.31 l
0.75 -0.32 l
0.76 -0.33 l
0.75 -0.35 l
0.75 -0.35 l
0.76 -0.36 l
0.75 -0.37 l
0.76 -0.37 l
0.75 -0.38 l
0.76 -0.37 l
0.75 -0.37 l
0.75 -0.37 l
0.76 -0.37 l
0.75 -0.36 l
0.76 -0.35 l
0.75 -0.34 l
0.75 -0.34 l
0.76 -0.33 l
0.75 -0.31 l
0.76 -0.30 l
0.75 -0.29 l
0.75 -0.28 l
0.76 -0.27 l
0.75 -0.25 l
0.76 -0.24 l
0.75 -0.23 l
0.75 -0.21 l
0.76 -0.20 l
0.75 -0.19 l
0.76 -0.18 l
0.75 -0.16 l
0.75 -0.15 l
0.76 -0.15 l
0.75 -0.13 l
0.76 -0.12 l
0.75 -0.11 l
0.75 -0.10 l
0.76 -0.10 l
0.75 -0.08 l
0.76 -0.08 l
637.93 167.00 lineto
0.76 -0.06 l
0.75 -0.06 l
0.75 -0.05 l
0.76 -0.05 l
0.75 -0.04 l
0.76 -0.04 l
0.75 -0.03 l
0.75 -0.03 l
0.76 -0.03 l
0.75 -0.02 l
0.76 -0.02 l
o
1 0 0 srgb
np
302.82 166.44 m
0.61 0.02 l
0.62 0.04 l
0.62 0.09 l
0.62 0.17 l
0.61 0.29 l
0.62 0.43 l
0.62 0.62 l
0.61 0.89 l
0.62 1.21 l
0.62 1.40 l
0.62 1.24 l
0.61 0.58 l
0.62 -0.40 l
0.62 -1.23 l
0.62 -1.61 l
0.61 -1.46 l
0.62 -1.04 l
0.62 -0.59 l
0.61 -0.29 l
0.62 -0.14 l
0.62 -0.07 l
0.62 -0.03 l
0.61 0 l
0.62 0.05 l
0.62 0.08 l
0.62 0.08 l
0.61 0.06 l
0.62 0 l
0.62 -0.06 l
0.61 -0.09 l
0.62 -0.09 l
0.62 -0.07 l
0.62 -0.04 l
0.61 -0.03 l
0.62 -0.01 l
0.62 0 l
0.62 0 l
0.61 0 l
0.62 0 l
0.62 0 l
0.61 0 l
0.62 0 l
0.62 0 l
0.62 0 l
0.61 0 l
0.62 0 l
0.62 0 l
0.61 0 l
0.62 0 l
0.62 0 l
0.62 0 l
0.61 0 l
0.62 0 l
0.62 0 l
0.62 0 l
0.61 0 l
0.62 0.01 l
0.62 0.04 l
0.61 0.06 l
0.62 0.13 l
0.62 0.20 l
0.62 0.25 l
0.61 0.22 l
0.62 0.15 l
0.62 0.03 l
0.62 -0.09 l
0.61 -0.17 l
0.62 -0.19 l
0.62 -0.19 l
0.61 -0.17 l
0.62 -0.11 l
0.62 -0.08 l
0.62 -0.02 l
0.61 0.01 l
0.62 0.07 l
0.62 0.11 l
0.62 0.12 l
0.61 0.10 l
0.62 0.05 l
0.62 -0.04 l
0.61 -0.09 l
0.62 -0.12 l
0.62 -0.10 l
0.62 -0.08 l
0.61 -0.03 l
0.62 0 l
0.62 0.02 l
0.61 0.03 l
0.62 0.03 l
0.62 0 l
0.62 -0.02 l
0.61 -0.03 l
0.62 -0.04 l
0.62 -0.02 l
0.62 -0.01 l
0.61 0 l
0.62 0.01 l
0.62 0.01 l
0.61 0 l
364.54 166.48 lineto
0.62 -0.01 l
0.62 -0.01 l
0.61 -0.01 l
0.62 -0.01 l
0.62 0 l
0.62 0 l
0.61 0 l
0.62 0 l
0.62 0 l
0.61 0 l
0.62 0 l
0.62 0 l
0.62 0 l
0.61 0 l
0.62 0 l
0.62 0 l
0.61 0 l
0.62 0 l
0.62 0 l
0.62 0 l
0.61 0 l
0.62 0 l
0.62 0 l
0.62 0 l
0.61 0 l
0.62 0 l
0.62 0 l
0.61 0 l
0.62 0 l
0.62 0.01 l
0.62 0.01 l
0.61 0.01 l
0.62 0.01 l
0.62 0.01 l
0.62 0 l
0.61 -0.01 l
0.62 -0.02 l
0.62 -0.01 l
0.61 0 l
0.62 -0.01 l
0.62 0 l
0.62 0 l
0.61 0 l
0.62 0 l
0.62 0 l
0.62 0 l
0.61 0 l
0.62 0 l
0.62 0 l
0.61 0 l
0.62 0.01 l
0.62 0.04 l
0.62 0.08 l
0.61 0.20 l
0.62 0.43 l
0.62 0.87 l
0.61 1.62 l
0.62 2.82 l
0.62 4.59 l
0.62 6.90 l
0.61 9.39 l
0.62 11.04 l
0.62 10.51 l
0.62 6.97 l
0.61 1.28 l
0.62 -4.09 l
0.62 -6.68 l
0.61 -6.10 l
0.62 -4.18 l
0.62 -3.04 l
0.62 -3.22 l
0.61 -3.84 l
0.62 -3.84 l
0.62 -3.19 l
0.62 -2.28 l
0.61 -1.27 l
0.62 -0.18 l
0.62 0.86 l
0.61 1.51 l
0.62 1.59 l
0.62 1.26 l
0.62 0.83 l
0.61 0.49 l
0.62 0.14 l
0.62 -0.41 l
0.62 -1.25 l
0.61 -2.25 l
0.62 -3.06 l
0.62 -3.31 l
0.61 -2.80 l
0.62 -1.65 l
0.62 -0.24 l
0.62 0.91 l
0.61 1.39 l
0.62 1.11 l
0.62 0.28 l
0.61 -0.72 l
0.62 -1.55 l
0.62 -1.98 l
426.27 170.47 lineto
0.61 -1.62 l
0.62 -1.13 l
0.62 -0.68 l
0.62 -0.34 l
0.61 -0.14 l
0.62 -0.02 l
0.62 0.06 l
0.61 0.20 l
0.62 0.45 l
0.62 0.86 l
0.62 1.35 l
0.61 1.75 l
0.62 1.85 l
0.62 1.57 l
0.62 1.02 l
0.61 0.51 l
0.62 0.23 l
0.62 0.21 l
0.61 0.41 l
0.62 0.71 l
0.62 1.01 l
0.62 1.01 l
0.61 0.45 l
0.62 -0.65 l
0.62 -1.87 l
0.61 -2.62 l
0.62 -2.59 l
0.62 -1.88 l
0.62 -0.90 l
0.61 0.11 l
0.62 1.13 l
0.62 2.31 l
0.62 3.64 l
0.61 4.78 l
0.62 4.93 l
0.62 3.46 l
0.61 0.49 l
0.62 -2.85 l
0.62 -5.16 l
0.62 -5.65 l
0.61 -4.65 l
0.62 -3.04 l
0.62 -1.55 l
0.62 -0.46 l
0.61 0.41 l
0.62 1.40 l
0.62 2.66 l
0.61 4.02 l
0.62 4.88 l
0.62 4.56 l
0.62 2.87 l
0.61 0.47 l
0.62 -1.55 l
0.62 -2.48 l
0.62 -2.49 l
0.61 -2.27 l
0.62 -2.25 l
0.62 -2.25 l
0.61 -1.86 l
0.62 -0.85 l
0.62 0.59 l
0.62 1.94 l
0.61 2.66 l
0.62 2.39 l
0.62 1.34 l
0.61 0.12 l
0.62 -0.63 l
0.62 -0.74 l
0.62 -0.51 l
0.61 -0.32 l
0.62 -0.37 l
0.62 -0.59 l
0.62 -0.89 l
0.61 -1.20 l
0.62 -1.44 l
0.62 -1.47 l
0.61 -1.20 l
0.62 -0.70 l
0.62 -0.29 l
0.62 -0.23 l
0.61 -0.48 l
0.62 -0.79 l
0.62 -0.86 l
0.62 -0.60 l
0.61 -0.11 l
0.62 0.42 l
0.62 0.95 l
0.61 1.48 l
0.62 2.00 l
0.62 2.42 l
0.62 2.56 l
0.61 2.30 l
0.62 1.64 l
0.62 0.71 l
0.62 -0.33 l
0.61 -1.30 l
0.62 -2.06 l
0.62 -2.40 l
0.61 -2.13 l
487.99 173.11 lineto
0.62 0.27 l
0.62 2.05 l
0.61 3.84 l
0.62 5.28 l
0.62 5.86 l
0.61 5.01 l
0.62 2.50 l
0.62 -0.99 l
0.62 -4.17 l
0.61 -5.78 l
0.62 -5.51 l
0.62 -3.86 l
0.62 -1.67 l
0.61 0.32 l
0.62 1.79 l
0.62 2.44 l
0.61 2.51 l
0.62 2.90 l
0.62 5.34 l
0.62 11.86 l
0.61 23.60 l
0.62 39.13 l
0.62 53.13 l
0.62 57.59 l
0.61 45.89 l
0.62 18.32 l
0.62 -15.93 l
0.61 -42.83 l
0.62 -51.35 l
0.62 -39.70 l
0.62 -15.59 l
0.61 8.51 l
0.62 22.32 l
0.62 22.95 l
0.62 15.70 l
0.61 8.80 l
0.62 6.12 l
0.62 4.93 l
0.61 1.74 l
0.62 -1.83 l
0.62 -0.86 l
0.62 3.97 l
0.61 6.59 l
0.62 2.81 l
0.62 -5.37 l
0.61 -12.57 l
0.62 -14.54 l
0.62 -9.43 l
0.62 2.33 l
0.61 17.43 l
0.62 29.75 l
0.62 33.66 l
0.62 28.23 l
0.61 17.93 l
0.62 9.30 l
0.62 5.86 l
0.61 5.36 l
0.62 1.39 l
0.62 -11.31 l
0.62 -31.54 l
0.61 -51.50 l
0.62 -62.07 l
0.62 -59.25 l
0.62 -46.18 l
0.61 -29.78 l
0.62 -15.84 l
0.62 -6.50 l
0.61 -1.08 l
0.62 1.73 l
0.62 2.87 l
0.62 2.63 l
0.61 1.19 l
0.62 -0.83 l
0.62 -2.49 l
0.61 -3.16 l
0.62 -2.85 l
0.62 -2.02 l
0.62 -1.16 l
0.61 -0.54 l
0.62 -0.22 l
0.62 -0.06 l
0.62 0 l
0.61 0.02 l
0.62 0.02 l
0.62 0.02 l
0.61 0 l
0.62 -0.01 l
0.62 -0.01 l
0.62 0 l
0.61 0.03 l
0.62 0.05 l
0.62 0.06 l
0.62 0.05 l
0.61 0.01 l
0.62 -0.02 l
0.62 -0.06 l
0.61 -0.06 l
0.62 -0.05 l
0.62 -0.05 l
549.72 166.46 lineto
0.61 -0.01 l
0.62 -0.01 l
0.62 0 l
0.62 0 l
0.61 0 l
0.62 0 l
0.62 0 l
0.61 0 l
0.62 0 l
0.62 0 l
0.62 0 l
0.61 0 l
0.62 0 l
0.62 0 l
0.61 0 l
0.62 0 l
0.62 0 l
0.62 0 l
0.61 0 l
0.62 0 l
0.62 0 l
0.62 0 l
0.61 0 l
0.62 0 l
0.62 0 l
0.61 0 l
0.62 0 l
0.62 0 l
0.62 0 l
0.61 0 l
0.62 0 l
0.62 0 l
0.62 0 l
0.61 0 l
0.62 0 l
0.62 0 l
0.61 0 l
0.62 0 l
0.62 0 l
0.62 0 l
0.61 0 l
0.62 0 l
0.62 0 l
0.62 0 l
0.61 0 l
0.62 0 l
0.62 0 l
0.61 0 l
0.62 0 l
0.62 0 l
0.62 0 l
0.61 0 l
0.62 0 l
0.62 0 l
0.61 0 l
0.62 0 l
0.62 0 l
0.62 0 l
0.61 0 l
0.62 0 l
0.62 0 l
0.62 0 l
0.61 0 l
0.62 0 l
0.62 0 l
0.61 0 l
0.62 0 l
0.62 0 l
0.62 0.03 l
0.61 0.08 l
0.62 0.27 l
0.62 0.73 l
0.62 1.65 l
0.61 3.16 l
0.62 4.99 l
0.62 6.39 l
0.61 6.25 l
0.62 3.86 l
0.62 -0.21 l
0.62 -4.33 l
0.61 -6.49 l
0.62 -6.28 l
0.62 -4.66 l
0.61 -2.78 l
0.62 -1.39 l
0.62 -0.62 l
0.62 -0.28 l
0.61 -0.14 l
0.62 -0.09 l
0.62 -0.04 l
0.62 -0.03 l
0.61 -0.02 l
0.62 -0.01 l
0.62 -0.02 l
0.61 0 l
0.62 0.01 l
0.62 0.02 l
0.62 0.05 l
0.61 0.07 l
611.44 166.69 lineto
0.62 0.06 l
0.62 0.02 l
0.61 -0.02 l
0.62 -0.06 l
0.62 -0.08 l
0.61 -0.07 l
0.62 -0.05 l
0.62 -0.03 l
0.62 -0.01 l
0.61 -0.01 l
0.62 0 l
o
0 0.8039 0 srgb
np
223.08 166.52 m
0.89 0 l
0.88 0.01 l
0.89 0.01 l
0.89 0.01 l
0.88 0.01 l
0.89 0.02 l
0.89 0.01 l
0.89 0.01 l
0.88 0.02 l
0.89 0.02 l
0.89 0.02 l
0.88 0.02 l
0.89 0.02 l
0.89 0.02 l
0.89 0.02 l
0.88 0.03 l
0.89 0.03 l
0.89 0.03 l
0.88 0.03 l
0.89 0.04 l
0.89 0.04 l
0.89 0.04 l
0.88 0.04 l
0.89 0.04 l
0.89 0.05 l
0.88 0.05 l
0.89 0.06 l
0.89 0.06 l
0.89 0.06 l
0.88 0.06 l
0.89 0.07 l
0.89 0.08 l
0.88 0.07 l
0.89 0.08 l
0.89 0.09 l
0.89 0.09 l
0.88 0.09 l
0.89 0.10 l
0.89 0.10 l
0.88 0.11 l
0.89 0.11 l
0.89 0.12 l
0.89 0.12 l
0.88 0.13 l
0.89 0.13 l
0.89 0.14 l
0.88 0.14 l
0.89 0.15 l
0.89 0.15 l
0.89 0.16 l
0.88 0.16 l
0.89 0.17 l
0.89 0.17 l
0.88 0.18 l
0.89 0.18 l
0.89 0.19 l
0.89 0.19 l
0.88 0.19 l
0.89 0.20 l
0.89 0.21 l
0.88 0.20 l
0.89 0.21 l
0.89 0.21 l
0.89 0.22 l
0.88 0.22 l
0.89 0.22 l
0.89 0.22 l
0.88 0.22 l
0.89 0.22 l
0.89 0.23 l
0.89 0.22 l
0.88 0.22 l
0.89 0.23 l
0.89 0.22 l
0.88 0.22 l
0.89 0.22 l
0.89 0.21 l
0.89 0.21 l
0.88 0.21 l
0.89 0.21 l
0.89 0.20 l
0.88 0.19 l
0.89 0.19 l
0.89 0.19 l
0.89 0.17 l
0.88 0.17 l
0.89 0.17 l
0.89 0.16 l
0.88 0.14 l
0.89 0.14 l
0.89 0.13 l
0.89 0.12 l
0.88 0.12 l
0.89 0.10 l
0.89 0.09 l
0.88 0.09 l
0.89 0.07 l
0.89 0.06 l
0.89 0.05 l
311.79 178.41 lineto
0.89 0.03 l
0.89 0.02 l
0.88 0.01 l
0.89 0 l
0.89 -0.01 l
0.89 -0.02 l
0.88 -0.04 l
0.89 -0.04 l
0.89 -0.05 l
0.88 -0.06 l
0.89 -0.07 l
0.89 -0.07 l
0.89 -0.09 l
0.88 -0.09 l
0.89 -0.10 l
0.89 -0.11 l
0.88 -0.12 l
0.89 -0.12 l
0.89 -0.12 l
0.89 -0.13 l
0.88 -0.14 l
0.89 -0.13 l
0.89 -0.14 l
0.88 -0.15 l
0.89 -0.14 l
0.89 -0.14 l
0.89 -0.15 l
0.88 -0.14 l
0.89 -0.14 l
0.89 -0.14 l
0.88 -0.14 l
0.89 -0.13 l
0.89 -0.13 l
0.89 -0.13 l
0.88 -0.11 l
0.89 -0.12 l
0.89 -0.10 l
0.88 -0.10 l
0.89 -0.09 l
0.89 -0.08 l
0.89 -0.07 l
0.88 -0.06 l
0.89 -0.05 l
0.89 -0.04 l
0.88 -0.03 l
0.89 -0.01 l
0.89 0 l
0.89 0.01 l
0.88 0.02 l
0.89 0.04 l
0.89 0.05 l
0.88 0.07 l
0.89 0.08 l
0.89 0.10 l
0.89 0.11 l
0.88 0.13 l
0.89 0.14 l
0.89 0.17 l
0.88 0.17 l
0.89 0.19 l
0.89 0.21 l
0.89 0.22 l
0.88 0.23 l
0.89 0.25 l
0.89 0.27 l
0.89 0.28 l
0.88 0.30 l
0.89 0.31 l
0.89 0.32 l
0.88 0.34 l
0.89 0.35 l
0.89 0.36 l
0.89 0.37 l
0.88 0.39 l
0.89 0.39 l
0.89 0.41 l
0.88 0.42 l
0.89 0.42 l
0.89 0.44 l
0.89 0.44 l
0.88 0.45 l
0.89 0.46 l
0.89 0.46 l
0.88 0.46 l
0.89 0.47 l
0.89 0.47 l
0.89 0.48 l
0.88 0.47 l
0.89 0.48 l
0.89 0.48 l
0.88 0.47 l
0.89 0.48 l
0.89 0.47 l
0.89 0.47 l
0.88 0.46 l
0.89 0.46 l
0.89 0.46 l
0.88 0.45 l
0.89 0.44 l
400.51 191.70 lineto
0.89 0.43 l
0.88 0.42 l
0.89 0.41 l
0.89 0.40 l
0.88 0.39 l
0.89 0.37 l
0.89 0.37 l
0.89 0.36 l
0.88 0.34 l
0.89 0.33 l
0.89 0.32 l
0.88 0.30 l
0.89 0.30 l
0.89 0.28 l
0.89 0.27 l
0.88 0.25 l
0.89 0.24 l
0.89 0.23 l
0.88 0.22 l
0.89 0.20 l
0.89 0.19 l
0.89 0.17 l
0.88 0.17 l
0.89 0.15 l
0.89 0.14 l
0.88 0.13 l
0.89 0.11 l
0.89 0.11 l
0.89 0.10 l
0.88 0.08 l
0.89 0.08 l
0.89 0.06 l
0.88 0.06 l
0.89 0.04 l
0.89 0.04 l
0.89 0.03 l
0.88 0.03 l
0.89 0.01 l
0.89 0.01 l
0.88 0.01 l
0.89 -0.01 l
0.89 0 l
0.89 -0.02 l
0.88 -0.01 l
0.89 -0.02 l
0.89 -0.03 l
0.88 -0.03 l
0.89 -0.03 l
0.89 -0.03 l
0.89 -0.04 l
0.88 -0.04 l
0.89 -0.04 l
0.89 -0.04 l
0.88 -0.05 l
0.89 -0.04 l
0.89 -0.05 l
0.89 -0.05 l
0.88 -0.05 l
0.89 -0.05 l
0.89 -0.05 l
0.88 -0.05 l
0.89 -0.05 l
0.89 -0.06 l
0.89 -0.05 l
0.88 -0.05 l
0.89 -0.06 l
0.89 -0.05 l
0.88 -0.06 l
0.89 -0.05 l
0.89 -0.06 l
0.89 -0.06 l
0.88 -0.06 l
0.89 -0.06 l
0.89 -0.06 l
0.88 -0.07 l
0.89 -0.06 l
0.89 -0.07 l
0.89 -0.07 l
0.88 -0.07 l
0.89 -0.07 l
0.89 -0.08 l
0.88 -0.07 l
0.89 -0.09 l
0.89 -0.08 l
0.89 -0.08 l
0.88 -0.09 l
0.89 -0.10 l
0.89 -0.09 l
0.88 -0.10 l
0.89 -0.10 l
0.89 -0.11 l
0.89 -0.11 l
0.88 -0.11 l
0.89 -0.12 l
0.89 -0.12 l
0.88 -0.13 l
0.89 -0.12 l
0.89 -0.14 l
0.89 -0.13 l
489.22 195.87 lineto
0.89 -0.15 l
0.89 -0.15 l
0.88 -0.15 l
0.89 -0.15 l
0.89 -0.16 l
0.89 -0.16 l
0.88 -0.17 l
0.89 -0.16 l
0.89 -0.17 l
0.88 -0.18 l
0.89 -0.17 l
0.89 -0.18 l
0.89 -0.18 l
0.88 -0.19 l
0.89 -0.18 l
0.89 -0.19 l
0.88 -0.18 l
0.89 -0.19 l
0.89 -0.19 l
0.89 -0.19 l
0.88 -0.19 l
0.89 -0.19 l
0.89 -0.19 l
0.88 -0.19 l
0.89 -0.19 l
0.89 -0.18 l
0.89 -0.19 l
0.88 -0.18 l
0.89 -0.18 l
0.89 -0.17 l
0.88 -0.18 l
0.89 -0.17 l
0.89 -0.17 l
0.89 -0.16 l
0.88 -0.16 l
0.89 -0.15 l
0.89 -0.15 l
0.88 -0.14 l
0.89 -0.14 l
0.89 -0.13 l
0.89 -0.13 l
0.88 -0.12 l
0.89 -0.12 l
0.89 -0.10 l
0.88 -0.11 l
0.89 -0.09 l
0.89 -0.09 l
0.89 -0.08 l
0.88 -0.07 l
0.89 -0.07 l
0.89 -0.06 l
0.88 -0.05 l
0.89 -0.04 l
0.89 -0.04 l
0.89 -0.03 l
0.88 -0.02 l
0.89 -0.02 l
0.89 -0.01 l
0.88 -0.01 l
0.89 0 l
0.89 0.01 l
0.89 0.01 l
0.88 0.01 l
0.89 0.03 l
0.89 0.02 l
0.88 0.03 l
0.89 0.03 l
0.89 0.04 l
0.89 0.03 l
0.88 0.04 l
0.89 0.04 l
0.89 0.04 l
0.88 0.04 l
0.89 0.04 l
0.89 0.04 l
0.89 0.04 l
0.88 0.03 l
0.89 0.04 l
0.89 0.02 l
0.88 0.03 l
0.89 0.02 l
0.89 0.01 l
0.89 0.01 l
0.88 0.01 l
0.89 -0.01 l
0.89 -0.01 l
0.89 -0.02 l
0.88 -0.03 l
0.89 -0.04 l
0.89 -0.04 l
0.88 -0.06 l
0.89 -0.06 l
0.89 -0.08 l
0.89 -0.08 l
0.88 -0.10 l
0.89 -0.11 l
0.89 -0.12 l
0.88 -0.13 l
0.89 -0.14 l
577.94 187.24 lineto
0.89 -0.16 l
0.88 -0.18 l
0.89 -0.19 l
0.89 -0.20 l
0.88 -0.20 l
0.89 -0.23 l
0.89 -0.23 l
0.89 -0.24 l
0.88 -0.26 l
0.89 -0.26 l
0.89 -0.27 l
0.88 -0.29 l
0.89 -0.29 l
0.89 -0.30 l
0.89 -0.31 l
0.88 -0.31 l
0.89 -0.32 l
0.89 -0.33 l
0.88 -0.34 l
0.89 -0.33 l
0.89 -0.35 l
0.89 -0.35 l
0.88 -0.35 l
0.89 -0.35 l
0.89 -0.36 l
0.88 -0.36 l
0.89 -0.36 l
0.89 -0.36 l
0.89 -0.37 l
0.88 -0.36 l
0.89 -0.36 l
0.89 -0.36 l
0.88 -0.35 l
0.89 -0.36 l
0.89 -0.35 l
0.89 -0.35 l
0.88 -0.34 l
0.89 -0.34 l
0.89 -0.34 l
0.88 -0.33 l
0.89 -0.32 l
0.89 -0.32 l
0.89 -0.32 l
0.88 -0.31 l
0.89 -0.29 l
0.89 -0.30 l
0.88 -0.29 l
0.89 -0.28 l
0.89 -0.27 l
0.89 -0.27 l
0.88 -0.25 l
0.89 -0.25 l
0.89 -0.25 l
0.88 -0.23 l
0.89 -0.23 l
0.89 -0.22 l
0.89 -0.21 l
0.88 -0.20 l
0.89 -0.20 l
0.89 -0.19 l
0.88 -0.18 l
0.89 -0.17 l
0.89 -0.17 l
0.89 -0.16 l
0.88 -0.15 l
0.89 -0.15 l
0.89 -0.14 l
0.88 -0.13 l
0.89 -0.13 l
0.89 -0.12 l
0.89 -0.11 l
0.88 -0.11 l
0.89 -0.11 l
0.89 -0.09 l
0.88 -0.09 l
0.89 -0.09 l
0.89 -0.09 l
0.89 -0.07 l
0.88 -0.08 l
0.89 -0.07 l
0.89 -0.06 l
0.88 -0.06 l
0.89 -0.06 l
0.89 -0.05 l
0.89 -0.05 l
0.88 -0.05 l
0.89 -0.04 l
0.89 -0.04 l
0.88 -0.04 l
0.89 -0.04 l
0.89 -0.03 l
0.89 -0.03 l
0.88 -0.03 l
0.89 -0.03 l
0.89 -0.02 l
0.88 -0.02 l
0.89 -0.02 l
0.89 -0.02 l
0.89 -0.02 l
666.65 166.61 lineto
0.89 -0.01 l
0.89 -0.02 l
0.88 -0.01 l
0.89 -0.01 l
0.89 -0.01 l
0.89 -0.01 l
0.88 -0.01 l
0.89 -0.01 l
0.89 -0.01 l
0.88 -0.01 l
0.89 0 l
o
0.8275 0.8275 0.8275 srgb
0.75 setlinewidth
[ 0.00 3.00] 0 setdash
np
307.20 153.64 m
0 345.60 l
o
np
427.63 153.64 m
0 345.60 l
o
np
548.07 153.64 m
0 345.60 l
o
np
668.50 153.64 m
0 345.60 l
o
np
204.94 166.44 m
489.60 0 l
o
np
204.94 225.06 m
489.60 0 l
o
np
204.94 283.68 m
489.60 0 l
o
np
204.94 342.30 m
489.60 0 l
o
np
204.94 400.92 m
489.60 0 l
o
np
204.94 459.54 m
489.60 0 l
o
132.94 81.64 708.94 513.64 cl
/Font1 findfont 18 s
0 0 0 srgb
449.74 98.92 (Elapsed Time \(seconds\)) .5 0 t
158.86 258.42 (F) 90 ta
-0.540 (ootpr) tb
0.270 (int Density) tb gr
132.94 81.64 708.94 513.64 cl
0 0 0 srgb
0.75 setlinewidth
[] 0 setdash
1 setlinecap
1 setlinejoin
10.00 setmiterlimit
np
307.20 153.64 m
361.30 0 l
o
np
307.20 153.64 m
0 -2.88 l
o
np
427.63 153.64 m
0 -2.88 l
o
np
548.07 153.64 m
0 -2.88 l
o
np
668.50 153.64 m
0 -2.88 l
o
/Font1 findfont 14 s
307.20 130.60 (0) .5 0 t
427.63 130.60 (500) .5 0 t
548.07 130.60 (1000) .5 0 t
668.50 130.60 (1500) .5 0 t
np
204.94 166.44 m
0 293.10 l
o
np
204.94 166.44 m
-2.88 0 l
o
np
204.94 225.06 m
-2.88 0 l
o
np
204.94 283.68 m
-2.88 0 l
o
np
204.94 342.30 m
-2.88 0 l
o
np
204.94 400.92 m
-2.88 0 l
o
np
204.94 459.54 m
-2.88 0 l
o
190.54 166.44 (0.000) .5 90 t
190.54 225.06 (0.002) .5 90 t
190.54 283.68 (0.004) .5 90 t
190.54 342.30 (0.006) .5 90 t
190.54 400.92 (0.008) .5 90 t
190.54 459.54 (0.010) .5 90 t
204.94 153.64 694.54 499.24 cl
0 0 0 srgb
0.75 setlinewidth
[] 0 setdash
1 setlinecap
1 setlinejoin
10.00 setmiterlimit
204.94 499.24 100.60 -57.60 r p1
1.50 setlinewidth
[] 0 setdash
np
215.74 484.84 m
21.60 0 l
o
1 0 0 srgb
np
215.74 470.44 m
21.60 0 l
o
0 0.8039 0 srgb
np
215.74 456.04 m
21.60 0 l
o
/Font1 findfont 12 s
0 0 0 srgb
248.14 480.53 (Flo) 0 ta
-0.180 (w) tb gr
248.14 466.13 (P) 0 ta
-0.480 (ack) tb
-0.240 (et) tb gr
248.14 451.73 (User click) 0 0 t
ep
%%Trailer
%%Pages: 1
%%EOF
